strain_circuit,media_type,timepoint,temperature,prop_first_place,num_reps,mean_rank,std_rank,mean_cut_score,std_cut_score
AND,Synthetic_Complete,24.0,30.0,0.0,54,2.0,0.0,0.14436736787895643,0.010191507632365494
AND,Synthetic_Complete_1%Sorbitol,34.0,30.0,0.0,81,2.0,0.0,0.14928234326093484,0.012658313664900526
NAND,Synthetic_Complete,24.0,30.0,0.0,36,2.5277777777777777,1.0668257983150846,0.12492970890087172,0.08155733815352657
NAND,Synthetic_Complete,28.0,30.0,0.0,81,2.567901234567901,1.6400712993003075,0.13322863008628308,0.06565767801627223
NAND,Synthetic_Complete_1%Sorbitol,32.0,30.0,0.0,3,4.333333333333333,3.299831645537222,0.07447949906581182,0.0529848652963089
NAND,Synthetic_Complete_1%Sorbitol,34.0,30.0,0.0,18,2.0,0.0,0.12945437782389338,0.007586281756199837
NOR,Synthetic_Complete,24.0,30.0,0.0,60,4.566666666666666,0.4955356249106169,0.2540830318895483,0.008010282768585456
NOR,Synthetic_Complete_1%Sorbitol,32.0,30.0,0.0,18,6.222222222222222,0.9162456945817024,0.17689286280649655,0.02564084864068572
NOR,Synthetic_Complete_1%Sorbitol,34.0,30.0,0.0,135,5.140740740740741,0.904007235000243,0.19300912230223535,0.01835641538084355
NOR,YEP 2%-dextrose,34.0,30.0,0.0,16,5.125,0.33071891388307384,0.14296164149518042,0.0052894135651395825
OR,Synthetic_Complete,24.0,30.0,0.0,81,5.888888888888889,0.8748897637790901,0.17254083429799397,0.021874506849967463
OR,Synthetic_Complete,28.0,30.0,0.0,6,5.666666666666667,0.7453559924999298,0.14827838303385213,0.021016114343231328
OR,Synthetic_Complete_1%Sorbitol,32.0,30.0,0.0,27,4.444444444444445,0.8314794192830981,0.12142143770119616,0.0132745604147543
OR,Synthetic_Complete_1%Sorbitol,34.0,30.0,0.0,54,5.185185185185185,1.1874977438430665,0.11225093986429373,0.008697045740000858
XNOR,Synthetic_Complete,24.0,30.0,0.0,24,2.3333333333333335,0.4714045207910317,0.17494974796010887,0.02188901786300854
XNOR,Synthetic_Complete,28.0,30.0,0.0,54,2.2222222222222223,0.41573970964154905,0.17767509621109692,0.009706743556099696
XNOR,Synthetic_Complete_1%Sorbitol,34.0,30.0,0.0,54,2.0,0.0,0.11133186767848945,0.012872730437276774
XOR,Synthetic_Complete,24.0,30.0,0.0,81,3.0123456790123457,1.486514085846347,0.19607978267731335,0.04379765788087393
XOR,Synthetic_Complete,28.0,30.0,0.0,18,2.0,0.0,0.20146850595002283,0.010805872900546847
XOR,Synthetic_Complete_1%Sorbitol,32.0,30.0,0.0,18,4.055555555555555,1.64898023107287,0.08178958126938247,0.02576286534451633
XOR,Synthetic_Complete_1%Sorbitol,34.0,30.0,0.0,36,3.7222222222222223,1.7576991132840416,0.09238328644282795,0.024119536330594916
