sample_id,channel,class_label,mean_log10,std_log10,bin(log10)_NAN,bin(log10)_0.05,bin(log10)_0.15,bin(log10)_0.25,bin(log10)_0.35,bin(log10)_0.45,bin(log10)_0.55,bin(log10)_0.65,bin(log10)_0.75,bin(log10)_0.85,bin(log10)_0.95,bin(log10)_1.05,bin(log10)_1.15,bin(log10)_1.25,bin(log10)_1.35,bin(log10)_1.45,bin(log10)_1.55,bin(log10)_1.65,bin(log10)_1.75,bin(log10)_1.85,bin(log10)_1.95,bin(log10)_2.05,bin(log10)_2.15,bin(log10)_2.25,bin(log10)_2.35,bin(log10)_2.45,bin(log10)_2.55,bin(log10)_2.65,bin(log10)_2.75,bin(log10)_2.85,bin(log10)_2.95,bin(log10)_3.05,bin(log10)_3.15,bin(log10)_3.25,bin(log10)_3.35,bin(log10)_3.45,bin(log10)_3.55,bin(log10)_3.65,bin(log10)_3.75,bin(log10)_3.85,bin(log10)_3.95,bin(log10)_4.05,bin(log10)_4.15,bin(log10)_4.25,bin(log10)_4.35,bin(log10)_4.45,bin(log10)_4.55,bin(log10)_4.65,bin(log10)_4.75,bin(log10)_4.85,bin(log10)_4.95,bin(log10)_5.05,bin(log10)_5.15,bin(log10)_5.25,bin(log10)_5.35,bin(log10)_5.45,bin(log10)_5.55,bin(log10)_5.65,bin(log10)_5.75,bin(log10)_5.85,bin(log10)_5.95,bin(log10)_6.05,bin(log10)_6.15,bin(log10)_6.25,bin(log10)_6.35,bin(log10)_6.45,bin(log10)_6.55,bin(log10)_6.65,bin(log10)_6.75,bin(log10)_6.85,bin(log10)_6.95
sample.transcriptic.aq1fqsmv78xr8as.experiment.transcriptic.r1fqsfn8au7bvp,FSC-A,1,5.17914,0.34897,6,0,0,0,0,0,0,0,0,0,0,0,0,0,0,0,0,0,0,0,0,0,0,0,0,0,0,0,0,0,1,0,0,2,2,1,0,283,207,3,3,2,7,13,67,258,1130,4213,10644,17022,20604,21508,19590,14758,11460,9606,7869,6078,4529,3201,2356,5044,0,0,0,0,0,0,0,0,0
sample.transcriptic.aq1fqsmv78xr8as.experiment.transcriptic.r1fqsfn8au7bvp,RL2-H,1,2.16846,0.22463,63,9,0,0,10,11,0,25,14,14,30,74,88,152,354,542,1074,2237,4308,8100,14221,23324,30530,30456,24076,13175,5234,1654,457,104,39,25,23,16,12,5,7,2,2,0,0,0,0,0,0,0,0,0,0,0,0,0,0,0,0,0,0,0,0,0,0,0,0,0,0,0,0,0,0,0,0
sample.transcriptic.aq1fqsmv78xr8as.experiment.transcriptic.r1fqsfn8au7bvp,RL3-H,1,2.11143,0.18196,27,4,0,0,3,3,0,8,4,6,14,30,34,69,177,317,812,1983,4451,10029,20175,33006,38580,29724,14656,4692,1238,268,83,32,17,11,5,6,2,1,0,0,0,0,0,0,0,0,0,0,0,0,0,0,0,0,0,0,0,0,0,0,0,0,0,0,0,0,0,0,0,0,0,0,0
sample.transcriptic.aq1fqsmv78xr8as.experiment.transcriptic.r1fqsfn8au7bvp,VL4-H,1,2.38495,0.20783,24,1,0,0,0,4,0,8,0,1,8,8,8,13,35,48,120,237,559,1266,2893,7172,14720,24956,32434,31176,22852,12701,5618,2374,813,283,80,29,14,4,2,2,3,1,0,0,0,0,0,0,0,0,0,0,0,0,0,0,0,0,0,0,0,0,0,0,0,0,0,0,0,0,0,0,0
sample.transcriptic.aq1fqsmv78xr8as.experiment.transcriptic.r1fqsfn8au7bvp,VL3-H,1,2.9384,0.23068,22,0,0,0,0,0,0,1,0,1,0,1,5,3,6,5,9,17,20,30,73,146,304,578,1257,2569,5504,11186,18903,26781,30557,26302,17661,9800,5020,2261,905,364,118,46,8,1,2,1,0,0,0,0,0,0,0,0,0,0,0,0,0,0,0,0,0,0,0,0,0,0,0,0,0,0,0
sample.transcriptic.aq1fqsmv78xr8as.experiment.transcriptic.r1fqsfn8au7bvp,VL2-H,1,3.54566,0.24737,102,0,0,0,0,0,0,1,2,1,2,3,1,7,4,3,8,11,20,33,47,75,115,163,285,455,538,467,334,189,164,688,2839,9086,19667,29549,32824,26538,16890,9788,5419,2468,1099,409,115,44,9,4,0,0,0,1,0,0,0,0,0,0,0,0,0,0,0,0,0,0,0,0,0,0,0
sample.transcriptic.aq1fqsmv78xr8as.experiment.transcriptic.r1fqsfn8au7bvp,VL1-H,1,3.57072,0.23684,55,0,0,0,0,1,0,4,0,1,0,4,0,2,2,3,3,6,10,16,18,16,32,55,105,172,268,420,639,634,500,775,2369,7117,16475,27187,33426,29327,18894,10666,5950,3000,1424,559,222,74,20,11,4,1,0,0,0,0,0,0,0,0,0,0,0,0,0,0,0,0,0,0,0,0,0
sample.transcriptic.aq1fqsmv78xr8as.experiment.transcriptic.r1fqsfn8au7bvp,FSC-W,1,1.81829,0.2929,506,0,0,0,0,0,0,0,0,0,0,1,0,7,80,3214,32310,39392,28593,10743,9305,8519,7766,6163,4583,3297,2326,1566,929,549,288,330,0,0,0,0,0,0,0,0,0,0,0,0,0,0,0,0,0,0,0,0,0,0,0,0,0,0,0,0,0,0,0,0,0,0,0,0,0,0,0
sample.transcriptic.aq1fqsmv78xr8as.experiment.transcriptic.r1fqsfn8au7bvp,SSC-W,1,2.02014,0.31742,508,0,0,0,0,0,0,0,0,0,0,0,0,0,0,30,4298,25471,21208,15326,17235,16609,15531,13365,10375,7108,4944,3360,2163,1365,714,857,0,0,0,0,0,0,0,0,0,0,0,0,0,0,0,0,0,0,0,0,0,0,0,0,0,0,0,0,0,0,0,0,0,0,0,0,0,0,0
sample.transcriptic.aq1fqsmv78xr8as.experiment.transcriptic.r1fqsfn8au7bvp,BL1-W,1,1.17487,0.21238,160462,0,0,0,0,0,0,0,0,0,0,2,1,1,0,0,1,0,0,0,0,0,0,0,0,0,0,0,0,0,0,0,0,0,0,0,0,0,0,0,0,0,0,0,0,0,0,0,0,0,0,0,0,0,0,0,0,0,0,0,0,0,0,0,0,0,0,0,0,0,0
sample.transcriptic.aq1fqsmv78xr8as.experiment.transcriptic.r1fqsfn8au7bvp,BL2-W,1,1.21054,0.36472,158322,11,0,0,31,39,0,99,48,74,171,272,238,316,317,170,129,105,39,22,18,8,6,5,6,4,6,7,1,1,1,1,0,0,0,0,0,0,0,0,0,0,0,0,0,0,0,0,0,0,0,0,0,0,0,0,0,0,0,0,0,0,0,0,0,0,0,0,0,0,0
sample.transcriptic.aq1fqsmv78xr8as.experiment.transcriptic.r1fqsfn8au7bvp,BL3-W,1,,,160467,0,0,0,0,0,0,0,0,0,0,0,0,0,0,0,0,0,0,0,0,0,0,0,0,0,0,0,0,0,0,0,0,0,0,0,0,0,0,0,0,0,0,0,0,0,0,0,0,0,0,0,0,0,0,0,0,0,0,0,0,0,0,0,0,0,0,0,0,0,0
sample.transcriptic.aq1fqsmv78xr8as.experiment.transcriptic.r1fqsfn8au7bvp,YL4-W,1,,,160467,0,0,0,0,0,0,0,0,0,0,0,0,0,0,0,0,0,0,0,0,0,0,0,0,0,0,0,0,0,0,0,0,0,0,0,0,0,0,0,0,0,0,0,0,0,0,0,0,0,0,0,0,0,0,0,0,0,0,0,0,0,0,0,0,0,0,0,0,0,0
sample.transcriptic.aq1fqsmv78xr8as.experiment.transcriptic.r1fqsfn8au7bvp,YL3-W,1,,,160467,0,0,0,0,0,0,0,0,0,0,0,0,0,0,0,0,0,0,0,0,0,0,0,0,0,0,0,0,0,0,0,0,0,0,0,0,0,0,0,0,0,0,0,0,0,0,0,0,0,0,0,0,0,0,0,0,0,0,0,0,0,0,0,0,0,0,0,0,0,0
sample.transcriptic.aq1fqsmv78xr8as.experiment.transcriptic.r1fqsfn8au7bvp,YL2-W,1,,,160467,0,0,0,0,0,0,0,0,0,0,0,0,0,0,0,0,0,0,0,0,0,0,0,0,0,0,0,0,0,0,0,0,0,0,0,0,0,0,0,0,0,0,0,0,0,0,0,0,0,0,0,0,0,0,0,0,0,0,0,0,0,0,0,0,0,0,0,0,0,0
sample.transcriptic.aq1fqsmv78xr8as.experiment.transcriptic.r1fqsfn8au7bvp,YL1-W,1,,,160467,0,0,0,0,0,0,0,0,0,0,0,0,0,0,0,0,0,0,0,0,0,0,0,0,0,0,0,0,0,0,0,0,0,0,0,0,0,0,0,0,0,0,0,0,0,0,0,0,0,0,0,0,0,0,0,0,0,0,0,0,0,0,0,0,0,0,0,0,0,0
sample.transcriptic.aq1fqsmv78xr8as.experiment.transcriptic.r1fqsfn8au7bvp,RL1-W,1,,,160467,0,0,0,0,0,0,0,0,0,0,0,0,0,0,0,0,0,0,0,0,0,0,0,0,0,0,0,0,0,0,0,0,0,0,0,0,0,0,0,0,0,0,0,0,0,0,0,0,0,0,0,0,0,0,0,0,0,0,0,0,0,0,0,0,0,0,0,0,0,0
sample.transcriptic.aq1fqsmv78xr8as.experiment.transcriptic.r1fqsfn8au7bvp,RL2-W,1,,,160467,0,0,0,0,0,0,0,0,0,0,0,0,0,0,0,0,0,0,0,0,0,0,0,0,0,0,0,0,0,0,0,0,0,0,0,0,0,0,0,0,0,0,0,0,0,0,0,0,0,0,0,0,0,0,0,0,0,0,0,0,0,0,0,0,0,0,0,0,0,0
sample.transcriptic.aq1fqsmv78xr8as.experiment.transcriptic.r1fqsfn8au7bvp,RL3-W,1,,,160467,0,0,0,0,0,0,0,0,0,0,0,0,0,0,0,0,0,0,0,0,0,0,0,0,0,0,0,0,0,0,0,0,0,0,0,0,0,0,0,0,0,0,0,0,0,0,0,0,0,0,0,0,0,0,0,0,0,0,0,0,0,0,0,0,0,0,0,0,0,0
sample.transcriptic.aq1fqsmv78xr8as.experiment.transcriptic.r1fqsfn8au7bvp,VL4-W,1,,,160467,0,0,0,0,0,0,0,0,0,0,0,0,0,0,0,0,0,0,0,0,0,0,0,0,0,0,0,0,0,0,0,0,0,0,0,0,0,0,0,0,0,0,0,0,0,0,0,0,0,0,0,0,0,0,0,0,0,0,0,0,0,0,0,0,0,0,0,0,0,0
sample.transcriptic.aq1fqsmv78xr8as.experiment.transcriptic.r1fqsfn8au7bvp,VL3-W,1,1.34418,0.46644,160463,0,0,0,0,0,0,1,0,0,0,0,0,0,1,1,0,0,0,1,0,0,0,0,0,0,0,0,0,0,0,0,0,0,0,0,0,0,0,0,0,0,0,0,0,0,0,0,0,0,0,0,0,0,0,0,0,0,0,0,0,0,0,0,0,0,0,0,0,0,0
sample.transcriptic.aq1fqsmv78xr8as.experiment.transcriptic.r1fqsfn8au7bvp,VL2-W,1,1.24597,0.37108,156318,25,0,0,42,71,0,187,123,134,276,464,399,486,641,426,314,218,158,77,29,21,6,9,6,6,10,4,4,3,3,7,0,0,0,0,0,0,0,0,0,0,0,0,0,0,0,0,0,0,0,0,0,0,0,0,0,0,0,0,0,0,0,0,0,0,0,0,0,0,0
sample.transcriptic.aq1fqsmv78xr8as.experiment.transcriptic.r1fqsfn8au7bvp,RL1-H,1,1.96551,0.19094,24,1,0,0,6,3,0,14,4,6,20,63,86,168,512,1024,2571,7760,16319,27968,34726,32507,20931,9724,4066,1317,412,161,51,12,5,4,2,0,0,0,0,0,0,0,0,0,0,0,0,0,0,0,0,0,0,0,0,0,0,0,0,0,0,0,0,0,0,0,0,0,0,0,0,0,0
sample.transcriptic.aq1fqsmv78xr8as.experiment.transcriptic.r1fqsfn8au7bvp,YL1-H,1,2.00591,0.18696,14,5,0,0,4,4,0,13,7,6,20,43,53,157,372,745,1847,5287,11551,22012,32647,36528,27580,14069,5185,1636,491,132,35,11,5,4,2,2,0,0,0,0,0,0,0,0,0,0,0,0,0,0,0,0,0,0,0,0,0,0,0,0,0,0,0,0,0,0,0,0,0,0,0,0,0
sample.transcriptic.aq1fqsmv78xr8as.experiment.transcriptic.r1fqsfn8au7bvp,VL1-W,1,1.26683,0.37454,155152,34,0,0,52,87,0,249,124,153,338,518,520,642,728,530,520,325,221,118,58,33,8,7,7,8,7,6,7,4,2,9,0,0,0,0,0,0,0,0,0,0,0,0,0,0,0,0,0,0,0,0,0,0,0,0,0,0,0,0,0,0,0,0,0,0,0,0,0,0,0
sample.transcriptic.aq1fqsmv78xr8as.experiment.transcriptic.r1fqsfn8au7bvp,YL3-H,1,2.09198,0.17969,55,10,0,0,10,5,0,22,16,10,30,62,63,138,299,525,997,2324,4884,10588,21010,34210,40216,29806,12714,2281,152,19,11,3,2,5,0,0,0,0,0,0,0,0,0,0,0,0,0,0,0,0,0,0,0,0,0,0,0,0,0,0,0,0,0,0,0,0,0,0,0,0,0,0,0
sample.transcriptic.aq1fqsmv78xr8as.experiment.transcriptic.r1fqsfn8au7bvp,YL2-H,1,1.90365,0.1658,21,3,0,0,5,9,0,12,14,19,24,77,113,257,703,1479,3646,10349,21435,35698,40793,30193,12251,2722,461,98,25,21,13,11,7,2,2,3,1,0,0,0,0,0,0,0,0,0,0,0,0,0,0,0,0,0,0,0,0,0,0,0,0,0,0,0,0,0,0,0,0,0,0,0,0
sample.transcriptic.aq1fqsmv78xr8as.experiment.transcriptic.r1fqsfn8au7bvp,SSC-A,1,5.58137,0.29332,509,0,0,0,0,0,0,0,0,0,0,0,0,0,0,0,0,0,0,0,0,0,0,0,0,0,0,0,0,0,0,0,0,0,0,0,0,0,0,0,0,0,0,0,1,1,4,34,120,523,1490,4387,9092,13928,18572,20811,18614,15750,13054,11002,9053,23522,0,0,0,0,0,0,0,0,0
sample.transcriptic.aq1fqsmv78xr8as.experiment.transcriptic.r1fqsfn8au7bvp,BL1-A,1,3.25473,0.35879,410,2,0,0,3,4,0,9,2,7,9,10,22,17,15,21,23,16,12,11,9,14,26,87,223,369,856,2421,5999,11412,16400,20570,21486,18246,13966,11423,9776,7771,5862,4471,3192,2129,1316,800,449,258,131,65,51,20,18,13,11,12,7,8,4,0,2,0,1,0,0,0,0,0,0,0,0,0,0
sample.transcriptic.aq1fqsmv78xr8as.experiment.transcriptic.r1fqsfn8au7bvp,BL2-A,1,3.71461,0.35859,461,1,0,0,3,3,0,5,0,4,3,2,4,4,8,9,3,16,11,16,15,20,22,27,15,29,17,37,71,190,561,1610,3847,7855,12955,18300,21383,20501,16543,12916,10831,8897,7104,5337,3837,2732,1744,1095,603,365,179,107,56,27,19,23,11,7,8,10,4,4,0,0,0,0,0,0,0,0,0
sample.transcriptic.aq1fqsmv78xr8as.experiment.transcriptic.r1fqsfn8au7bvp,BL3-A,1,2.52431,0.44761,6481,95,0,0,103,87,0,164,104,99,180,289,293,437,683,763,1035,1604,2093,2819,4037,5999,8471,11343,14410,16695,16994,15201,12467,10046,7862,6028,4556,3342,2243,1389,913,548,258,146,68,40,26,11,12,11,4,8,6,3,1,0,0,0,0,0,0,0,0,0,0,0,0,0,0,0,0,0,0,0,0
sample.transcriptic.aq1fqsmv78xr8as.experiment.transcriptic.r1fqsfn8au7bvp,YL4-A,1,1.8168,0.50362,68569,670,0,0,619,726,0,1301,680,669,1305,1891,2018,2679,3797,3863,4977,6671,7223,8067,8884,9096,8267,6351,4549,2807,1690,1009,687,465,363,262,153,92,39,15,6,3,4,0,0,0,0,0,0,0,0,0,0,0,0,0,0,0,0,0,0,0,0,0,0,0,0,0,0,0,0,0,0,0,0
sample.transcriptic.aq1fqsmv78xr8as.experiment.transcriptic.r1fqsfn8au7bvp,YL2-A,1,1.7881,0.504,63426,763,0,0,740,775,0,1446,747,737,1472,2239,2238,2958,4328,4361,5554,7358,8242,8995,9388,9384,8104,5925,4004,2587,1583,1018,724,455,354,244,171,78,34,18,8,5,1,2,1,0,0,0,0,0,0,0,0,0,0,0,0,0,0,0,0,0,0,0,0,0,0,0,0,0,0,0,0,0,0
sample.transcriptic.aq1fqsmv78xr8as.experiment.transcriptic.r1fqsfn8au7bvp,YL1-A,1,1.93389,0.49855,46539,562,0,0,587,558,0,1143,566,591,1176,1835,1788,2472,3636,3604,4928,6736,7855,9157,10475,11474,11135,9675,7823,5441,3830,2465,1537,1071,708,502,284,150,78,38,14,7,8,8,6,1,2,1,0,0,1,0,0,0,0,0,0,0,0,0,0,0,0,0,0,0,0,0,0,0,0,0,0,0,0
sample.transcriptic.aq1fqsmv78xr8as.experiment.transcriptic.r1fqsfn8au7bvp,RL1-A,1,1.97702,0.49333,36727,489,0,0,536,557,0,1098,518,500,1129,1691,1691,2261,3525,3605,4847,6919,8049,9536,11139,12541,12770,11145,8957,6445,4512,3186,2152,1420,996,669,371,230,130,50,16,16,10,8,10,4,5,0,3,0,2,1,0,1,0,0,0,0,0,0,0,0,0,0,0,0,0,0,0,0,0,0,0,0,0
sample.transcriptic.aq1fqsmv78xr8as.experiment.transcriptic.r1fqsfn8au7bvp,RL2-A,1,2.11192,0.50668,43635,366,0,0,398,428,0,744,388,379,812,1287,1180,1611,2447,2422,3413,4734,5444,6692,8028,9836,11060,11459,11081,9538,7338,5257,3729,2387,1634,1032,737,425,252,135,72,25,13,11,16,7,6,2,3,2,1,0,1,0,0,0,0,0,0,0,0,0,0,0,0,0,0,0,0,0,0,0,0,0,0
sample.transcriptic.aq1fqsmv78xr8as.experiment.transcriptic.r1fqsfn8au7bvp,YL3-A,1,1.95966,0.50644,72549,467,0,0,479,410,0,868,452,447,896,1387,1357,1766,2675,2729,3429,4844,5422,6314,7244,8376,8989,8387,7037,5110,3387,2008,1156,718,499,395,277,192,119,56,18,5,3,0,0,0,0,0,0,0,0,0,0,0,0,0,0,0,0,0,0,0,0,0,0,0,0,0,0,0,0,0,0,0,0
sample.transcriptic.aq1fqsmv78xr8as.experiment.transcriptic.r1fqsfn8au7bvp,VL4-A,1,2.45445,0.49601,23538,173,0,0,161,183,0,355,193,188,412,487,502,745,1119,1180,1485,2250,2700,3423,4476,6152,7876,9844,11950,13187,13788,12946,10898,8744,6666,4780,3517,2463,1699,1038,637,354,158,92,41,14,12,10,8,6,6,2,5,3,1,0,0,0,0,0,0,0,0,0,0,0,0,0,0,0,0,0,0,0,0
sample.transcriptic.aq1fqsmv78xr8as.experiment.transcriptic.r1fqsfn8au7bvp,VL3-A,1,3.11647,0.4376,5990,21,0,0,28,20,0,37,19,14,50,66,59,63,105,122,172,237,308,359,515,686,1038,1382,1943,2777,4077,6281,9090,12496,15621,17382,17030,14697,11781,9669,7459,5793,4488,3176,2126,1393,899,455,253,134,67,29,11,6,8,10,6,6,3,4,6,0,0,0,0,0,0,0,0,0,0,0,0,0,0
sample.transcriptic.aq1fqsmv78xr8as.experiment.transcriptic.r1fqsfn8au7bvp,VL2-A,1,3.77194,0.38516,2772,2,0,0,4,3,0,5,2,5,5,10,6,14,14,18,28,25,36,44,48,60,81,105,137,148,176,185,249,322,484,1050,2310,4994,9470,14321,18138,20162,18781,15081,12106,10208,7977,6390,4856,3490,2397,1620,939,539,313,153,85,37,12,10,6,10,6,5,4,9,0,0,0,0,0,0,0,0,0
sample.transcriptic.aq1fqsmv78xr8as.experiment.transcriptic.r1fqsfn8au7bvp,VL1-A,1,3.80099,0.38926,2798,3,0,0,0,1,0,3,0,0,5,6,7,6,14,13,23,23,35,36,49,67,75,111,121,154,196,277,310,455,652,1088,2098,4003,7406,12039,16740,19707,19834,16481,13024,10935,8626,6761,5360,3817,2689,1838,1112,682,368,198,95,56,20,6,9,6,8,5,6,10,0,0,0,0,0,0,0,0,0
sample.transcriptic.aq1fqsmv78xr8as.experiment.transcriptic.r1fqsfn8au7bvp,YL4-H,1,1.96039,0.19512,48,6,0,0,12,9,0,33,20,27,38,105,157,303,814,1364,3353,8144,15629,25423,33010,33429,23922,11014,3049,454,55,13,9,15,5,2,1,4,0,0,0,0,0,0,0,0,0,0,0,0,0,0,0,0,0,0,0,0,0,0,0,0,0,0,0,0,0,0,0,0,0,0,0,0,0
sample.transcriptic.aq1fqsmv78xr8as.experiment.transcriptic.r1fqsfn8au7bvp,FSC-H,1,4.91083,0.17122,0,0,0,0,0,0,0,0,0,0,0,0,0,0,0,0,0,0,0,0,0,0,0,0,0,0,0,0,0,0,0,0,0,0,490,4,4,3,2,1,2,1,4,8,111,678,2358,7941,21937,38361,43857,28806,11788,3794,302,15,0,0,0,0,0,0,0,0,0,0,0,0,0,0,0
sample.transcriptic.aq1fqsmv78xr8as.experiment.transcriptic.r1fqsfn8au7bvp,SSC-H,1,5.38374,0.20524,499,0,0,0,0,1,0,1,0,1,0,0,0,0,1,1,0,1,0,0,0,0,0,0,0,0,0,0,0,0,0,0,0,0,0,0,0,0,0,3,0,0,0,0,2,2,14,52,206,700,2377,6890,17285,28874,33099,29478,18817,10732,6051,3079,1418,883,0,0,0,0,0,0,0,0,0
sample.transcriptic.aq1fqsmv78xr8as.experiment.transcriptic.r1fqsfn8au7bvp,BL1-H,1,3.0268,0.22854,28,0,0,0,3,2,0,4,4,5,4,10,15,28,46,53,83,103,85,70,86,44,130,315,277,337,1419,4304,11298,22775,32414,31905,23101,14951,8587,4606,2094,894,286,84,12,4,0,0,0,0,1,0,0,0,0,0,0,0,0,0,0,0,0,0,0,0,0,0,0,0,0,0,0,0,0
sample.transcriptic.aq1fqsmv78xr8as.experiment.transcriptic.r1fqsfn8au7bvp,BL2-H,1,3.48736,0.22115,12,0,0,0,2,1,0,1,0,2,1,1,1,6,3,5,6,10,13,13,35,42,70,81,102,83,98,70,78,225,861,2638,6832,15301,26566,34151,29148,19827,12085,6650,3302,1391,555,149,39,8,2,0,0,0,1,0,0,0,0,0,0,0,0,0,0,0,0,0,0,0,0,0,0,0,0
sample.transcriptic.aq1fqsmv78xr8as.experiment.transcriptic.r1fqsfn8au7bvp,BL3-H,1,2.39078,0.22376,16,0,0,0,1,0,0,1,3,3,4,5,4,13,40,41,87,261,572,1547,3726,8569,15707,22813,28785,28587,23013,14144,7333,3302,1285,436,115,30,16,1,5,2,0,0,0,0,0,0,0,0,0,0,0,0,0,0,0,0,0,0,0,0,0,0,0,0,0,0,0,0,0,0,0,0,0
sample.transcriptic.aq1fqsmv78xr8as.experiment.transcriptic.r1fqsfn8au7bvp,RL3-A,1,2.08646,0.49902,45091,377,0,0,420,382,0,767,429,417,800,1216,1298,1657,2559,2616,3547,4739,5610,6822,8391,10298,11465,11600,10989,9039,6733,4565,3048,1991,1313,886,597,332,220,124,53,21,20,8,7,8,2,5,2,0,1,1,0,1,0,0,0,0,0,0,0,0,0,0,0,0,0,0,0,0,0,0,0,0,0
sample.transcriptic.aq1fqsmv78yveev.experiment.transcriptic.r1fqsfn8au7bvp,FSC-W,0,1.6632,0.2738,766,2,0,0,2,7,0,22,6,6,19,80,102,257,886,1995,2282,1042,564,656,817,1456,587,4,0,0,0,0,0,0,0,0,0,0,0,0,0,0,0,0,0,0,0,0,0,0,0,0,0,0,0,0,0,0,0,0,0,0,0,0,0,0,0,0,0,0,0,0,0,0,0
sample.transcriptic.aq1fqsmv78yveev.experiment.transcriptic.r1fqsfn8au7bvp,VL1-H,0,2.89787,0.2703,2,0,0,0,0,0,0,0,0,0,0,0,0,0,1,0,0,2,4,4,4,15,36,59,132,251,615,1362,2148,2160,1346,604,721,940,687,353,96,14,2,0,0,0,0,0,0,0,0,0,0,0,0,0,0,0,0,0,0,0,0,0,0,0,0,0,0,0,0,0,0,0,0
sample.transcriptic.aq1fqsmv78yveev.experiment.transcriptic.r1fqsfn8au7bvp,VL2-H,0,2.6579,0.27448,2,0,0,0,0,0,0,0,0,0,0,1,0,0,4,2,2,6,16,22,20,80,176,373,859,1540,2121,2116,1314,836,930,559,185,58,44,120,130,41,1,0,0,0,0,0,0,0,0,0,0,0,0,0,0,0,0,0,0,0,0,0,0,0,0,0,0,0,0,0,0,0,0
sample.transcriptic.aq1fqsmv78yveev.experiment.transcriptic.r1fqsfn8au7bvp,RL1-H,0,1.79306,0.16637,7,0,0,0,1,0,0,2,4,2,7,17,33,55,162,280,702,1598,2632,3044,2103,771,130,7,1,0,0,0,0,0,0,0,0,0,0,0,0,0,0,0,0,0,0,0,0,0,0,0,0,0,0,0,0,0,0,0,0,0,0,0,0,0,0,0,0,0,0,0,0,0,0
sample.transcriptic.aq1fqsmv78yveev.experiment.transcriptic.r1fqsfn8au7bvp,VL4-H,0,2.13375,0.1942,8,0,0,0,0,0,0,0,5,0,7,3,6,7,19,35,67,158,317,593,1127,2024,2701,2420,1406,525,115,14,1,0,0,0,0,0,0,0,0,0,0,0,0,0,0,0,0,0,0,0,0,0,0,0,0,0,0,0,0,0,0,0,0,0,0,0,0,0,0,0,0,0,0
sample.transcriptic.aq1fqsmv78yveev.experiment.transcriptic.r1fqsfn8au7bvp,RL3-H,0,1.98718,0.18572,7,1,0,0,2,1,0,4,1,2,3,17,13,24,57,67,141,387,822,1525,2424,2898,2139,830,177,16,0,0,0,0,0,0,0,0,0,0,0,0,0,0,0,0,0,0,0,0,0,0,0,0,0,0,0,0,0,0,0,0,0,0,0,0,0,0,0,0,0,0,0,0,0
sample.transcriptic.aq1fqsmv78yveev.experiment.transcriptic.r1fqsfn8au7bvp,RL2-H,0,2.00257,0.23247,23,2,0,0,1,6,0,7,4,6,6,17,19,51,107,110,257,479,819,1253,1842,2337,2135,1364,539,150,22,2,0,0,0,0,0,0,0,0,0,0,0,0,0,0,0,0,0,0,0,0,0,0,0,0,0,0,0,0,0,0,0,0,0,0,0,0,0,0,0,0,0,0,0
sample.transcriptic.aq1fqsmv78yveev.experiment.transcriptic.r1fqsfn8au7bvp,SSC-W,0,1.72324,0.15237,1367,1,0,0,1,0,0,4,5,3,8,16,16,36,65,178,1346,3353,2432,1366,921,412,27,1,0,0,0,0,0,0,0,0,0,0,0,0,0,0,0,0,0,0,0,0,0,0,0,0,0,0,0,0,0,0,0,0,0,0,0,0,0,0,0,0,0,0,0,0,0,0,0
sample.transcriptic.aq1fqsmv78yveev.experiment.transcriptic.r1fqsfn8au7bvp,VL3-H,0,2.42848,0.21865,10,1,0,0,0,1,0,1,0,1,2,0,2,3,7,15,10,18,52,96,146,327,711,1310,2112,2542,2098,1097,528,285,143,34,5,1,0,0,0,0,0,0,0,0,0,0,0,0,0,0,0,0,0,0,0,0,0,0,0,0,0,0,0,0,0,0,0,0,0,0,0,0,0
sample.transcriptic.aq1fqsmv78yveev.experiment.transcriptic.r1fqsfn8au7bvp,BL1-W,0,,,11558,0,0,0,0,0,0,0,0,0,0,0,0,0,0,0,0,0,0,0,0,0,0,0,0,0,0,0,0,0,0,0,0,0,0,0,0,0,0,0,0,0,0,0,0,0,0,0,0,0,0,0,0,0,0,0,0,0,0,0,0,0,0,0,0,0,0,0,0,0,0
sample.transcriptic.aq1fqsmv78yveev.experiment.transcriptic.r1fqsfn8au7bvp,VL3-W,0,,,11558,0,0,0,0,0,0,0,0,0,0,0,0,0,0,0,0,0,0,0,0,0,0,0,0,0,0,0,0,0,0,0,0,0,0,0,0,0,0,0,0,0,0,0,0,0,0,0,0,0,0,0,0,0,0,0,0,0,0,0,0,0,0,0,0,0,0,0,0,0,0
sample.transcriptic.aq1fqsmv78yveev.experiment.transcriptic.r1fqsfn8au7bvp,BL3-W,0,,,11558,0,0,0,0,0,0,0,0,0,0,0,0,0,0,0,0,0,0,0,0,0,0,0,0,0,0,0,0,0,0,0,0,0,0,0,0,0,0,0,0,0,0,0,0,0,0,0,0,0,0,0,0,0,0,0,0,0,0,0,0,0,0,0,0,0,0,0,0,0,0
sample.transcriptic.aq1fqsmv78yveev.experiment.transcriptic.r1fqsfn8au7bvp,YL4-W,0,,,11558,0,0,0,0,0,0,0,0,0,0,0,0,0,0,0,0,0,0,0,0,0,0,0,0,0,0,0,0,0,0,0,0,0,0,0,0,0,0,0,0,0,0,0,0,0,0,0,0,0,0,0,0,0,0,0,0,0,0,0,0,0,0,0,0,0,0,0,0,0,0
sample.transcriptic.aq1fqsmv78yveev.experiment.transcriptic.r1fqsfn8au7bvp,YL3-W,0,,,11558,0,0,0,0,0,0,0,0,0,0,0,0,0,0,0,0,0,0,0,0,0,0,0,0,0,0,0,0,0,0,0,0,0,0,0,0,0,0,0,0,0,0,0,0,0,0,0,0,0,0,0,0,0,0,0,0,0,0,0,0,0,0,0,0,0,0,0,0,0,0
sample.transcriptic.aq1fqsmv78yveev.experiment.transcriptic.r1fqsfn8au7bvp,YL2-W,0,,,11558,0,0,0,0,0,0,0,0,0,0,0,0,0,0,0,0,0,0,0,0,0,0,0,0,0,0,0,0,0,0,0,0,0,0,0,0,0,0,0,0,0,0,0,0,0,0,0,0,0,0,0,0,0,0,0,0,0,0,0,0,0,0,0,0,0,0,0,0,0,0
sample.transcriptic.aq1fqsmv78yveev.experiment.transcriptic.r1fqsfn8au7bvp,YL1-W,0,,,11558,0,0,0,0,0,0,0,0,0,0,0,0,0,0,0,0,0,0,0,0,0,0,0,0,0,0,0,0,0,0,0,0,0,0,0,0,0,0,0,0,0,0,0,0,0,0,0,0,0,0,0,0,0,0,0,0,0,0,0,0,0,0,0,0,0,0,0,0,0,0
sample.transcriptic.aq1fqsmv78yveev.experiment.transcriptic.r1fqsfn8au7bvp,RL1-W,0,,,11558,0,0,0,0,0,0,0,0,0,0,0,0,0,0,0,0,0,0,0,0,0,0,0,0,0,0,0,0,0,0,0,0,0,0,0,0,0,0,0,0,0,0,0,0,0,0,0,0,0,0,0,0,0,0,0,0,0,0,0,0,0,0,0,0,0,0,0,0,0,0
sample.transcriptic.aq1fqsmv78yveev.experiment.transcriptic.r1fqsfn8au7bvp,RL2-W,0,,,11558,0,0,0,0,0,0,0,0,0,0,0,0,0,0,0,0,0,0,0,0,0,0,0,0,0,0,0,0,0,0,0,0,0,0,0,0,0,0,0,0,0,0,0,0,0,0,0,0,0,0,0,0,0,0,0,0,0,0,0,0,0,0,0,0,0,0,0,0,0,0
sample.transcriptic.aq1fqsmv78yveev.experiment.transcriptic.r1fqsfn8au7bvp,RL3-W,0,,,11558,0,0,0,0,0,0,0,0,0,0,0,0,0,0,0,0,0,0,0,0,0,0,0,0,0,0,0,0,0,0,0,0,0,0,0,0,0,0,0,0,0,0,0,0,0,0,0,0,0,0,0,0,0,0,0,0,0,0,0,0,0,0,0,0,0,0,0,0,0,0
sample.transcriptic.aq1fqsmv78yveev.experiment.transcriptic.r1fqsfn8au7bvp,VL4-W,0,,,11558,0,0,0,0,0,0,0,0,0,0,0,0,0,0,0,0,0,0,0,0,0,0,0,0,0,0,0,0,0,0,0,0,0,0,0,0,0,0,0,0,0,0,0,0,0,0,0,0,0,0,0,0,0,0,0,0,0,0,0,0,0,0,0,0,0,0,0,0,0,0
sample.transcriptic.aq1fqsmv78yveev.experiment.transcriptic.r1fqsfn8au7bvp,YL1-H,0,1.87088,0.17255,3,0,0,0,2,1,0,1,2,4,3,13,17,30,100,149,369,993,1767,2659,2876,1835,618,107,9,0,0,0,0,0,0,0,0,0,0,0,0,0,0,0,0,0,0,0,0,0,0,0,0,0,0,0,0,0,0,0,0,0,0,0,0,0,0,0,0,0,0,0,0,0,0
sample.transcriptic.aq1fqsmv78yveev.experiment.transcriptic.r1fqsfn8au7bvp,BL2-W,0,,,11558,0,0,0,0,0,0,0,0,0,0,0,0,0,0,0,0,0,0,0,0,0,0,0,0,0,0,0,0,0,0,0,0,0,0,0,0,0,0,0,0,0,0,0,0,0,0,0,0,0,0,0,0,0,0,0,0,0,0,0,0,0,0,0,0,0,0,0,0,0,0
sample.transcriptic.aq1fqsmv78yveev.experiment.transcriptic.r1fqsfn8au7bvp,YL2-H,0,1.81404,0.1712,4,1,0,0,0,3,0,5,2,0,4,23,23,49,158,245,598,1333,2430,2978,2425,1042,219,16,0,0,0,0,0,0,0,0,0,0,0,0,0,0,0,0,0,0,0,0,0,0,0,0,0,0,0,0,0,0,0,0,0,0,0,0,0,0,0,0,0,0,0,0,0,0,0
sample.transcriptic.aq1fqsmv78yveev.experiment.transcriptic.r1fqsfn8au7bvp,VL4-A,0,1.93863,0.47194,5173,33,0,0,22,36,0,65,33,27,78,102,103,129,177,199,251,331,369,485,546,663,676,626,603,403,266,110,39,11,2,0,0,0,0,0,0,0,0,0,0,0,0,0,0,0,0,0,0,0,0,0,0,0,0,0,0,0,0,0,0,0,0,0,0,0,0,0,0,0,0
sample.transcriptic.aq1fqsmv78yveev.experiment.transcriptic.r1fqsfn8au7bvp,YL4-H,0,1.86851,0.2027,7,1,0,0,2,5,0,5,2,2,12,18,30,66,130,209,494,1066,1678,2395,2381,1861,901,242,47,4,0,0,0,0,0,0,0,0,0,0,0,0,0,0,0,0,0,0,0,0,0,0,0,0,0,0,0,0,0,0,0,0,0,0,0,0,0,0,0,0,0,0,0,0,0
sample.transcriptic.aq1fqsmv78yveev.experiment.transcriptic.r1fqsfn8au7bvp,VL2-W,0,,,11558,0,0,0,0,0,0,0,0,0,0,0,0,0,0,0,0,0,0,0,0,0,0,0,0,0,0,0,0,0,0,0,0,0,0,0,0,0,0,0,0,0,0,0,0,0,0,0,0,0,0,0,0,0,0,0,0,0,0,0,0,0,0,0,0,0,0,0,0,0,0
sample.transcriptic.aq1fqsmv78yveev.experiment.transcriptic.r1fqsfn8au7bvp,FSC-A,0,4.69438,0.33401,0,0,0,0,0,0,0,0,0,0,0,0,0,0,0,0,0,0,0,0,0,0,0,0,0,0,0,0,0,0,0,0,0,0,0,2,16,22,38,78,131,205,306,550,803,1112,1286,1275,1213,1159,1053,998,639,407,171,82,12,0,0,0,0,0,0,0,0,0,0,0,0,0,0
sample.transcriptic.aq1fqsmv78yveev.experiment.transcriptic.r1fqsfn8au7bvp,SSC-A,0,4.82714,0.52822,7,0,0,0,0,0,0,0,0,0,0,0,0,0,0,0,0,0,0,0,0,1,0,1,3,1,5,4,13,19,32,54,87,156,179,239,178,100,30,8,5,3,20,40,86,159,257,341,882,1644,2073,1909,1371,899,471,210,63,6,2,0,0,0,0,0,0,0,0,0,0,0,0
sample.transcriptic.aq1fqsmv78yveev.experiment.transcriptic.r1fqsfn8au7bvp,BL1-A,0,2.41974,0.68262,2296,48,0,0,24,36,0,65,41,28,62,100,107,140,201,195,238,251,244,227,178,129,164,372,819,1063,1063,637,295,217,274,280,422,477,488,295,73,9,0,0,0,0,0,0,0,0,0,0,0,0,0,0,0,0,0,0,0,0,0,0,0,0,0,0,0,0,0,0,0,0,0
sample.transcriptic.aq1fqsmv78yveev.experiment.transcriptic.r1fqsfn8au7bvp,BL2-A,0,2.8782,0.60322,1391,6,0,0,7,2,0,19,6,5,15,19,21,25,50,42,72,81,108,144,154,225,262,328,386,484,513,498,659,798,893,941,646,362,262,279,391,467,476,378,127,16,0,0,0,0,0,0,0,0,0,0,0,0,0,0,0,0,0,0,0,0,0,0,0,0,0,0,0,0,0
sample.transcriptic.aq1fqsmv78yveev.experiment.transcriptic.r1fqsfn8au7bvp,BL3-A,0,1.93735,0.47775,3478,43,0,0,54,29,0,81,46,35,82,109,126,151,263,255,326,466,511,584,648,824,884,775,603,544,395,177,61,8,0,0,0,0,0,0,0,0,0,0,0,0,0,0,0,0,0,0,0,0,0,0,0,0,0,0,0,0,0,0,0,0,0,0,0,0,0,0,0,0,0
sample.transcriptic.aq1fqsmv78yveev.experiment.transcriptic.r1fqsfn8au7bvp,YL4-A,0,1.61045,0.46691,5783,63,0,0,63,67,0,123,55,72,149,198,188,252,357,366,458,541,536,574,585,425,345,223,101,25,9,0,0,0,0,0,0,0,0,0,0,0,0,0,0,0,0,0,0,0,0,0,0,0,0,0,0,0,0,0,0,0,0,0,0,0,0,0,0,0,0,0,0,0,0
sample.transcriptic.aq1fqsmv78yveev.experiment.transcriptic.r1fqsfn8au7bvp,YL3-A,0,1.78699,0.47272,5871,35,0,0,46,40,0,89,45,48,80,140,130,155,235,237,320,391,461,497,562,582,584,452,312,156,69,18,3,0,0,0,0,0,0,0,0,0,0,0,0,0,0,0,0,0,0,0,0,0,0,0,0,0,0,0,0,0,0,0,0,0,0,0,0,0,0,0,0,0,0
sample.transcriptic.aq1fqsmv78yveev.experiment.transcriptic.r1fqsfn8au7bvp,YL2-A,0,1.54785,0.4656,5769,82,0,0,82,88,0,136,84,73,130,211,211,315,396,374,501,606,575,567,564,375,257,112,40,9,1,0,0,0,0,0,0,0,0,0,0,0,0,0,0,0,0,0,0,0,0,0,0,0,0,0,0,0,0,0,0,0,0,0,0,0,0,0,0,0,0,0,0,0,0
sample.transcriptic.aq1fqsmv78yveev.experiment.transcriptic.r1fqsfn8au7bvp,YL1-A,0,1.59974,0.44023,5518,48,0,0,64,74,0,127,65,63,118,219,199,261,400,416,468,640,593,657,629,487,305,149,46,11,1,0,0,0,0,0,0,0,0,0,0,0,0,0,0,0,0,0,0,0,0,0,0,0,0,0,0,0,0,0,0,0,0,0,0,0,0,0,0,0,0,0,0,0,0
sample.transcriptic.aq1fqsmv78yveev.experiment.transcriptic.r1fqsfn8au7bvp,RL1-A,0,1.59458,0.45071,5344,66,0,0,62,63,0,148,69,73,136,221,202,271,423,401,498,619,644,665,561,529,313,178,64,7,1,0,0,0,0,0,0,0,0,0,0,0,0,0,0,0,0,0,0,0,0,0,0,0,0,0,0,0,0,0,0,0,0,0,0,0,0,0,0,0,0,0,0,0,0
sample.transcriptic.aq1fqsmv78yveev.experiment.transcriptic.r1fqsfn8au7bvp,RL2-A,0,1.76069,0.47588,5579,53,0,0,51,50,0,91,43,42,91,127,155,190,276,255,330,460,532,563,586,564,560,450,297,145,52,13,3,0,0,0,0,0,0,0,0,0,0,0,0,0,0,0,0,0,0,0,0,0,0,0,0,0,0,0,0,0,0,0,0,0,0,0,0,0,0,0,0,0,0
sample.transcriptic.aq1fqsmv78yveev.experiment.transcriptic.r1fqsfn8au7bvp,RL3-A,0,1.7697,0.46563,5301,49,0,0,36,59,0,110,54,43,87,130,126,180,255,288,365,475,508,608,658,667,619,431,298,149,51,10,1,0,0,0,0,0,0,0,0,0,0,0,0,0,0,0,0,0,0,0,0,0,0,0,0,0,0,0,0,0,0,0,0,0,0,0,0,0,0,0,0,0,0
sample.transcriptic.aq1fqsmv78yveev.experiment.transcriptic.r1fqsfn8au7bvp,VL3-A,0,2.30881,0.49608,4449,13,0,0,23,17,0,42,12,16,34,49,32,45,104,80,142,183,185,245,283,374,478,584,682,655,736,668,562,411,206,120,68,47,13,0,0,0,0,0,0,0,0,0,0,0,0,0,0,0,0,0,0,0,0,0,0,0,0,0,0,0,0,0,0,0,0,0,0,0,0
sample.transcriptic.aq1fqsmv78yveev.experiment.transcriptic.r1fqsfn8au7bvp,VL2-A,0,2.59783,0.52464,3615,9,0,0,7,9,0,18,5,6,20,26,25,43,53,68,68,122,123,145,207,272,330,375,392,548,587,722,714,734,745,590,331,155,128,132,132,77,22,3,0,0,0,0,0,0,0,0,0,0,0,0,0,0,0,0,0,0,0,0,0,0,0,0,0,0,0,0,0,0,0
sample.transcriptic.aq1fqsmv78yveev.experiment.transcriptic.r1fqsfn8au7bvp,VL1-A,0,2.87897,0.53732,3974,5,0,0,6,11,0,16,6,3,10,14,18,19,27,21,30,53,49,79,105,143,172,200,251,312,379,454,502,525,565,625,599,677,646,491,279,157,88,42,5,0,0,0,0,0,0,0,0,0,0,0,0,0,0,0,0,0,0,0,0,0,0,0,0,0,0,0,0,0,0
sample.transcriptic.aq1fqsmv78yveev.experiment.transcriptic.r1fqsfn8au7bvp,FSC-H,0,4.41081,0.26003,0,0,0,0,0,0,0,0,0,0,0,0,0,0,0,0,0,0,0,0,0,0,0,0,0,0,0,0,0,0,0,0,0,0,11,19,40,94,137,197,268,388,915,1460,1660,1859,1904,1325,726,283,203,64,5,0,0,0,0,0,0,0,0,0,0,0,0,0,0,0,0,0,0
sample.transcriptic.aq1fqsmv78yveev.experiment.transcriptic.r1fqsfn8au7bvp,SSC-H,0,4.5509,0.64685,0,0,0,0,0,0,0,0,0,0,0,0,0,0,0,0,0,0,0,0,0,0,0,0,0,3,28,101,174,300,289,166,48,5,3,0,1,2,12,64,171,318,583,668,641,564,523,585,759,1076,1567,1490,983,362,67,4,1,0,0,0,0,0,0,0,0,0,0,0,0,0,0
sample.transcriptic.aq1fqsmv78yveev.experiment.transcriptic.r1fqsfn8au7bvp,BL1-H,0,2.14939,0.53886,1,1,0,0,0,1,0,5,2,5,4,10,23,38,129,255,571,1049,1348,1238,1127,1302,792,432,338,184,161,195,224,236,332,397,461,470,202,25,0,0,0,0,0,0,0,0,0,0,0,0,0,0,0,0,0,0,0,0,0,0,0,0,0,0,0,0,0,0,0,0,0,0,0
sample.transcriptic.aq1fqsmv78yveev.experiment.transcriptic.r1fqsfn8au7bvp,BL2-H,0,2.72873,0.44475,0,0,0,0,0,0,0,0,0,0,0,1,0,0,1,3,4,4,8,23,54,130,303,635,1113,1770,1967,1486,797,410,227,197,222,236,317,377,459,456,308,49,1,0,0,0,0,0,0,0,0,0,0,0,0,0,0,0,0,0,0,0,0,0,0,0,0,0,0,0,0,0,0
sample.transcriptic.aq1fqsmv78yveev.experiment.transcriptic.r1fqsfn8au7bvp,BL3-H,0,2.01903,0.22204,3,0,0,0,0,1,0,1,0,1,5,7,8,19,38,77,160,419,844,1582,2306,2356,1685,823,566,382,200,70,5,0,0,0,0,0,0,0,0,0,0,0,0,0,0,0,0,0,0,0,0,0,0,0,0,0,0,0,0,0,0,0,0,0,0,0,0,0,0,0,0,0,0
sample.transcriptic.aq1fqsmv78yveev.experiment.transcriptic.r1fqsfn8au7bvp,YL3-H,0,2.02223,0.19783,12,0,0,0,2,2,0,4,5,2,8,8,12,25,53,70,155,341,642,1190,1924,2708,2536,1372,441,46,0,0,0,0,0,0,0,0,0,0,0,0,0,0,0,0,0,0,0,0,0,0,0,0,0,0,0,0,0,0,0,0,0,0,0,0,0,0,0,0,0,0,0,0,0
sample.transcriptic.aq1fqsmv78yveev.experiment.transcriptic.r1fqsfn8au7bvp,VL1-W,0,,,11558,0,0,0,0,0,0,0,0,0,0,0,0,0,0,0,0,0,0,0,0,0,0,0,0,0,0,0,0,0,0,0,0,0,0,0,0,0,0,0,0,0,0,0,0,0,0,0,0,0,0,0,0,0,0,0,0,0,0,0,0,0,0,0,0,0,0,0,0,0,0
