sample_id,channel,class_label,mean_log10,std_log10,bin(log10)_NAN,bin(log10)_0.05,bin(log10)_0.15,bin(log10)_0.25,bin(log10)_0.35,bin(log10)_0.45,bin(log10)_0.55,bin(log10)_0.65,bin(log10)_0.75,bin(log10)_0.85,bin(log10)_0.95,bin(log10)_1.05,bin(log10)_1.15,bin(log10)_1.25,bin(log10)_1.35,bin(log10)_1.45,bin(log10)_1.55,bin(log10)_1.65,bin(log10)_1.75,bin(log10)_1.85,bin(log10)_1.95,bin(log10)_2.05,bin(log10)_2.15,bin(log10)_2.25,bin(log10)_2.35,bin(log10)_2.45,bin(log10)_2.55,bin(log10)_2.65,bin(log10)_2.75,bin(log10)_2.85,bin(log10)_2.95,bin(log10)_3.05,bin(log10)_3.15,bin(log10)_3.25,bin(log10)_3.35,bin(log10)_3.45,bin(log10)_3.55,bin(log10)_3.65,bin(log10)_3.75,bin(log10)_3.85,bin(log10)_3.95,bin(log10)_4.05,bin(log10)_4.15,bin(log10)_4.25,bin(log10)_4.35,bin(log10)_4.45,bin(log10)_4.55,bin(log10)_4.65,bin(log10)_4.75,bin(log10)_4.85,bin(log10)_4.95,bin(log10)_5.05,bin(log10)_5.15,bin(log10)_5.25,bin(log10)_5.35,bin(log10)_5.45,bin(log10)_5.55,bin(log10)_5.65,bin(log10)_5.75,bin(log10)_5.85,bin(log10)_5.95,bin(log10)_6.05,bin(log10)_6.15,bin(log10)_6.25,bin(log10)_6.35,bin(log10)_6.45,bin(log10)_6.55,bin(log10)_6.65,bin(log10)_6.75,bin(log10)_6.85,bin(log10)_6.95
sample.transcriptic.aq1fqsmv78xr8as.experiment.transcriptic.r1fqsfn8au7bvp,FSC-A,1,5.1522,0.33125,3,0,0,0,0,0,0,0,0,0,0,0,0,0,0,0,0,0,0,0,0,0,0,0,0,0,0,0,1,0,0,0,0,0,0,0,0,0,0,0,1,6,6,27,86,431,1625,5916,13815,20987,24786,25178,23104,16764,12502,9915,7810,5877,4284,3005,2245,5003,0,0,0,0,0,0,0,0,0
sample.transcriptic.aq1fqsmv78xr8as.experiment.transcriptic.r1fqsfn8au7bvp,RL2-H,1,2.17163,0.23008,47,9,0,0,10,11,0,34,21,18,41,70,102,201,408,602,1225,2666,4841,9251,16463,26458,34176,34181,27065,15418,6713,2271,692,156,42,28,24,36,26,33,19,13,3,3,0,0,0,0,0,0,0,0,0,0,0,0,0,0,0,0,0,0,0,0,0,0,0,0,0,0,0,0,0,0,0
sample.transcriptic.aq1fqsmv78xr8as.experiment.transcriptic.r1fqsfn8au7bvp,RL3-H,1,2.11222,0.18825,23,4,0,0,4,8,0,10,5,9,19,24,49,81,212,419,912,2353,5247,11742,23377,37901,42765,32859,16706,5927,1832,548,152,59,42,28,30,19,8,3,0,0,0,0,0,0,0,0,0,0,0,0,0,0,0,0,0,0,0,0,0,0,0,0,0,0,0,0,0,0,0,0,0,0,0
sample.transcriptic.aq1fqsmv78xr8as.experiment.transcriptic.r1fqsfn8au7bvp,VL4-H,1,2.38115,0.20988,22,2,0,0,2,3,0,3,3,0,5,9,11,21,45,57,122,301,667,1534,3561,8229,17564,29073,37136,35235,25271,13938,6467,2560,941,315,127,59,42,29,14,6,1,1,1,0,0,0,0,0,0,0,0,0,0,0,0,0,0,0,0,0,0,0,0,0,0,0,0,0,0,0,0,0,0
sample.transcriptic.aq1fqsmv78xr8as.experiment.transcriptic.r1fqsfn8au7bvp,VL3-H,1,2.92689,0.2343,27,1,0,0,0,1,0,2,0,0,4,5,4,7,2,5,12,14,29,46,69,158,329,718,1523,3346,7311,14109,22766,31029,34225,28812,18897,10377,5242,2475,1085,453,191,67,21,10,4,1,0,0,0,0,0,0,0,0,0,0,0,0,0,0,0,0,0,0,0,0,0,0,0,0,0,0,0
sample.transcriptic.aq1fqsmv78xr8as.experiment.transcriptic.r1fqsfn8au7bvp,VL2-H,1,3.53525,0.26313,331,3,0,0,2,1,0,8,1,2,6,5,9,11,14,14,13,33,32,51,78,113,154,256,345,533,671,665,446,309,340,1223,4238,11453,22357,33692,36172,29089,18757,10969,6026,2916,1232,517,193,63,23,7,1,1,1,0,0,0,1,0,0,0,0,0,0,0,0,0,0,0,0,0,0,0,0
sample.transcriptic.aq1fqsmv78xr8as.experiment.transcriptic.r1fqsfn8au7bvp,VL1-H,1,3.59618,0.27338,119,0,0,0,1,0,0,2,1,1,0,3,3,0,6,7,8,8,18,12,19,33,41,92,143,249,395,678,879,859,734,1032,2990,7803,17101,27710,34188,31575,22525,14357,8731,5112,2878,1423,752,382,203,108,63,36,22,17,15,7,10,8,5,3,2,5,1,2,0,0,0,0,0,0,0,0,0
sample.transcriptic.aq1fqsmv78xr8as.experiment.transcriptic.r1fqsfn8au7bvp,FSC-W,1,1.79823,0.28224,0,0,0,0,0,0,0,1,1,1,0,0,0,2,136,4379,38175,47708,34388,11863,10264,9065,7839,6043,4365,3196,2161,1439,944,562,298,547,0,0,0,0,0,0,0,0,0,0,0,0,0,0,0,0,0,0,0,0,0,0,0,0,0,0,0,0,0,0,0,0,0,0,0,0,0,0,0
sample.transcriptic.aq1fqsmv78xr8as.experiment.transcriptic.r1fqsfn8au7bvp,SSC-W,1,2.01877,0.32007,0,0,0,0,0,0,0,0,0,0,0,0,0,0,1,78,4610,28726,25523,17513,20293,20161,17913,14594,10685,7435,5266,3873,2563,1644,1028,1471,0,0,0,0,0,0,0,0,0,0,0,0,0,0,0,0,0,0,0,0,0,0,0,0,0,0,0,0,0,0,0,0,0,0,0,0,0,0,0
sample.transcriptic.aq1fqsmv78xr8as.experiment.transcriptic.r1fqsfn8au7bvp,BL1-W,1,1.28116,0.22034,183371,0,0,0,0,0,0,0,0,0,0,2,1,0,0,2,1,0,0,0,0,0,0,0,0,0,0,0,0,0,0,0,0,0,0,0,0,0,0,0,0,0,0,0,0,0,0,0,0,0,0,0,0,0,0,0,0,0,0,0,0,0,0,0,0,0,0,0,0,0,0
sample.transcriptic.aq1fqsmv78xr8as.experiment.transcriptic.r1fqsfn8au7bvp,BL2-W,1,1.23664,0.38463,181102,11,0,0,23,42,0,118,67,85,192,236,250,265,315,190,131,124,81,44,39,21,7,10,4,7,5,0,3,3,2,0,0,0,0,0,0,0,0,0,0,0,0,0,0,0,0,0,0,0,0,0,0,0,0,0,0,0,0,0,0,0,0,0,0,0,0,0,0,0,0
sample.transcriptic.aq1fqsmv78xr8as.experiment.transcriptic.r1fqsfn8au7bvp,BL3-W,1,,,183377,0,0,0,0,0,0,0,0,0,0,0,0,0,0,0,0,0,0,0,0,0,0,0,0,0,0,0,0,0,0,0,0,0,0,0,0,0,0,0,0,0,0,0,0,0,0,0,0,0,0,0,0,0,0,0,0,0,0,0,0,0,0,0,0,0,0,0,0,0,0
sample.transcriptic.aq1fqsmv78xr8as.experiment.transcriptic.r1fqsfn8au7bvp,YL4-W,1,,,183377,0,0,0,0,0,0,0,0,0,0,0,0,0,0,0,0,0,0,0,0,0,0,0,0,0,0,0,0,0,0,0,0,0,0,0,0,0,0,0,0,0,0,0,0,0,0,0,0,0,0,0,0,0,0,0,0,0,0,0,0,0,0,0,0,0,0,0,0,0,0
sample.transcriptic.aq1fqsmv78xr8as.experiment.transcriptic.r1fqsfn8au7bvp,YL3-W,1,,,183377,0,0,0,0,0,0,0,0,0,0,0,0,0,0,0,0,0,0,0,0,0,0,0,0,0,0,0,0,0,0,0,0,0,0,0,0,0,0,0,0,0,0,0,0,0,0,0,0,0,0,0,0,0,0,0,0,0,0,0,0,0,0,0,0,0,0,0,0,0,0
sample.transcriptic.aq1fqsmv78xr8as.experiment.transcriptic.r1fqsfn8au7bvp,YL2-W,1,,,183377,0,0,0,0,0,0,0,0,0,0,0,0,0,0,0,0,0,0,0,0,0,0,0,0,0,0,0,0,0,0,0,0,0,0,0,0,0,0,0,0,0,0,0,0,0,0,0,0,0,0,0,0,0,0,0,0,0,0,0,0,0,0,0,0,0,0,0,0,0,0
sample.transcriptic.aq1fqsmv78xr8as.experiment.transcriptic.r1fqsfn8au7bvp,YL1-W,1,,,183377,0,0,0,0,0,0,0,0,0,0,0,0,0,0,0,0,0,0,0,0,0,0,0,0,0,0,0,0,0,0,0,0,0,0,0,0,0,0,0,0,0,0,0,0,0,0,0,0,0,0,0,0,0,0,0,0,0,0,0,0,0,0,0,0,0,0,0,0,0,0
sample.transcriptic.aq1fqsmv78xr8as.experiment.transcriptic.r1fqsfn8au7bvp,RL1-W,1,,,183377,0,0,0,0,0,0,0,0,0,0,0,0,0,0,0,0,0,0,0,0,0,0,0,0,0,0,0,0,0,0,0,0,0,0,0,0,0,0,0,0,0,0,0,0,0,0,0,0,0,0,0,0,0,0,0,0,0,0,0,0,0,0,0,0,0,0,0,0,0,0
sample.transcriptic.aq1fqsmv78xr8as.experiment.transcriptic.r1fqsfn8au7bvp,RL2-W,1,,,183377,0,0,0,0,0,0,0,0,0,0,0,0,0,0,0,0,0,0,0,0,0,0,0,0,0,0,0,0,0,0,0,0,0,0,0,0,0,0,0,0,0,0,0,0,0,0,0,0,0,0,0,0,0,0,0,0,0,0,0,0,0,0,0,0,0,0,0,0,0,0
sample.transcriptic.aq1fqsmv78xr8as.experiment.transcriptic.r1fqsfn8au7bvp,RL3-W,1,,,183377,0,0,0,0,0,0,0,0,0,0,0,0,0,0,0,0,0,0,0,0,0,0,0,0,0,0,0,0,0,0,0,0,0,0,0,0,0,0,0,0,0,0,0,0,0,0,0,0,0,0,0,0,0,0,0,0,0,0,0,0,0,0,0,0,0,0,0,0,0,0
sample.transcriptic.aq1fqsmv78xr8as.experiment.transcriptic.r1fqsfn8au7bvp,VL4-W,1,,,183377,0,0,0,0,0,0,0,0,0,0,0,0,0,0,0,0,0,0,0,0,0,0,0,0,0,0,0,0,0,0,0,0,0,0,0,0,0,0,0,0,0,0,0,0,0,0,0,0,0,0,0,0,0,0,0,0,0,0,0,0,0,0,0,0,0,0,0,0,0,0
sample.transcriptic.aq1fqsmv78xr8as.experiment.transcriptic.r1fqsfn8au7bvp,VL3-W,1,1.06332,0.44993,183362,0,0,0,1,3,0,0,1,0,0,0,1,5,1,1,0,1,1,0,0,0,0,0,0,0,0,0,0,0,0,0,0,0,0,0,0,0,0,0,0,0,0,0,0,0,0,0,0,0,0,0,0,0,0,0,0,0,0,0,0,0,0,0,0,0,0,0,0,0,0
sample.transcriptic.aq1fqsmv78xr8as.experiment.transcriptic.r1fqsfn8au7bvp,VL2-W,1,1.28384,0.3935,178422,28,0,0,41,80,0,212,140,154,338,490,474,556,651,463,416,323,209,119,87,56,33,25,24,5,4,8,3,3,5,8,0,0,0,0,0,0,0,0,0,0,0,0,0,0,0,0,0,0,0,0,0,0,0,0,0,0,0,0,0,0,0,0,0,0,0,0,0,0,0
sample.transcriptic.aq1fqsmv78xr8as.experiment.transcriptic.r1fqsfn8au7bvp,RL1-H,1,1.97295,0.19992,32,5,0,0,2,4,0,13,11,8,26,58,98,190,607,1177,3165,8831,18697,31022,38356,35408,23877,12762,5633,2164,798,275,104,36,12,4,2,0,0,0,0,0,0,0,0,0,0,0,0,0,0,0,0,0,0,0,0,0,0,0,0,0,0,0,0,0,0,0,0,0,0,0,0,0,0
sample.transcriptic.aq1fqsmv78xr8as.experiment.transcriptic.r1fqsfn8au7bvp,YL1-H,1,2.04239,0.19093,21,3,0,0,3,8,0,19,6,13,33,61,76,149,411,738,1709,4486,9856,19704,32524,41821,36815,21863,9053,2817,783,249,84,32,21,9,7,2,1,0,0,0,0,0,0,0,0,0,0,0,0,0,0,0,0,0,0,0,0,0,0,0,0,0,0,0,0,0,0,0,0,0,0,0,0
sample.transcriptic.aq1fqsmv78xr8as.experiment.transcriptic.r1fqsfn8au7bvp,VL1-W,1,1.30857,0.36941,172323,54,0,0,105,121,0,396,267,279,633,929,996,1286,1640,1191,1074,829,480,299,175,99,70,38,33,15,11,6,6,7,2,13,0,0,0,0,0,0,0,0,0,0,0,0,0,0,0,0,0,0,0,0,0,0,0,0,0,0,0,0,0,0,0,0,0,0,0,0,0,0,0
sample.transcriptic.aq1fqsmv78xr8as.experiment.transcriptic.r1fqsfn8au7bvp,YL3-H,1,2.0878,0.18098,70,9,0,0,11,11,0,22,16,23,33,83,85,166,374,542,1179,2926,5959,12226,24241,39995,45799,32970,13874,2469,193,35,36,15,8,4,1,2,0,0,0,0,0,0,0,0,0,0,0,0,0,0,0,0,0,0,0,0,0,0,0,0,0,0,0,0,0,0,0,0,0,0,0,0,0
sample.transcriptic.aq1fqsmv78xr8as.experiment.transcriptic.r1fqsfn8au7bvp,YL2-H,1,1.9073,0.16943,18,3,0,0,10,10,0,19,16,19,31,84,156,276,877,1665,4147,11594,24203,39676,46208,34953,15038,3438,623,119,48,29,42,23,30,12,5,3,2,0,0,0,0,0,0,0,0,0,0,0,0,0,0,0,0,0,0,0,0,0,0,0,0,0,0,0,0,0,0,0,0,0,0,0,0
sample.transcriptic.aq1fqsmv78xr8as.experiment.transcriptic.r1fqsfn8au7bvp,SSC-A,1,5.58863,0.29446,0,0,0,0,0,0,0,0,0,0,0,0,0,0,0,0,0,0,0,0,0,0,0,0,0,0,0,0,0,0,0,0,0,0,0,0,0,0,0,0,0,0,0,0,0,3,28,75,149,562,1751,4689,9936,15516,21000,23529,21575,18051,15209,12234,9841,29229,0,0,0,0,0,0,0,0,0
sample.transcriptic.aq1fqsmv78xr8as.experiment.transcriptic.r1fqsfn8au7bvp,BL1-A,1,3.26372,0.35693,1,0,0,0,0,0,0,0,0,0,0,0,0,0,0,0,0,0,0,0,0,0,0,0,29,200,889,2939,6962,13112,18665,23464,24600,21224,16346,13349,10881,8616,6557,4973,3634,2491,1662,1022,669,400,259,134,90,60,46,36,24,18,7,11,5,1,1,0,0,0,0,0,0,0,0,0,0,0,0
sample.transcriptic.aq1fqsmv78xr8as.experiment.transcriptic.r1fqsfn8au7bvp,BL2-A,1,3.71789,0.36041,8,0,0,0,1,0,0,0,0,0,0,0,0,0,0,0,0,0,1,0,0,0,1,2,1,4,11,16,62,184,647,1898,4629,9422,15253,20752,24078,23612,19070,14901,12369,9814,7594,5906,4322,3117,2071,1331,861,545,323,205,118,73,50,38,34,17,14,7,11,4,0,0,0,0,0,0,0,0,0
sample.transcriptic.aq1fqsmv78xr8as.experiment.transcriptic.r1fqsfn8au7bvp,BL3-A,1,2.52848,0.45631,7215,92,0,0,118,107,0,234,119,125,207,341,375,515,742,857,1239,1802,2381,3264,4562,6888,9500,12708,16515,19038,19634,17588,14374,11332,8620,6711,5050,3711,2507,1772,1177,768,434,305,155,94,61,36,37,22,15,8,10,6,4,1,1,0,0,0,0,0,0,0,0,0,0,0,0,0,0,0,0,0,0
sample.transcriptic.aq1fqsmv78xr8as.experiment.transcriptic.r1fqsfn8au7bvp,YL4-A,1,1.80657,0.50011,78844,795,0,0,764,762,0,1504,754,806,1509,2314,2300,2956,4468,4388,5812,7446,8592,9328,10143,10388,9342,7293,5003,3063,1751,1021,635,498,335,260,142,83,43,18,9,7,0,1,0,0,0,0,0,0,0,0,0,0,0,0,0,0,0,0,0,0,0,0,0,0,0,0,0,0,0,0,0,0,0
sample.transcriptic.aq1fqsmv78xr8as.experiment.transcriptic.r1fqsfn8au7bvp,YL2-A,1,1.77923,0.49921,73434,853,0,0,837,840,0,1651,850,883,1697,2566,2510,3529,4968,4986,6558,8547,9364,10183,10719,10622,9233,6627,4373,2677,1677,1020,728,487,370,256,168,73,46,24,13,3,2,3,0,0,0,0,0,0,0,0,0,0,0,0,0,0,0,0,0,0,0,0,0,0,0,0,0,0,0,0,0,0,0
sample.transcriptic.aq1fqsmv78xr8as.experiment.transcriptic.r1fqsfn8au7bvp,YL1-A,1,1.9516,0.50144,57510,599,0,0,622,611,0,1259,650,607,1208,2001,1904,2559,3905,3978,5168,7024,8094,9792,11160,12631,12528,11313,9099,6554,4360,2876,1893,1215,843,595,334,228,128,42,44,16,11,7,4,3,2,0,0,0,0,0,0,0,0,0,0,0,0,0,0,0,0,0,0,0,0,0,0,0,0,0,0,0,0
sample.transcriptic.aq1fqsmv78xr8as.experiment.transcriptic.r1fqsfn8au7bvp,RL1-A,1,1.98648,0.49807,40170,582,0,0,586,589,0,1198,597,635,1236,1924,1890,2631,3980,4121,5524,7967,9246,10885,12888,14807,14682,12809,10223,7441,5128,3629,2618,1834,1280,880,553,355,217,96,61,40,20,25,14,7,6,2,0,1,0,0,0,0,0,0,0,0,0,0,0,0,0,0,0,0,0,0,0,0,0,0,0,0,0
sample.transcriptic.aq1fqsmv78xr8as.experiment.transcriptic.r1fqsfn8au7bvp,RL2-A,1,2.11634,0.51301,48036,435,0,0,453,497,0,917,477,400,925,1335,1394,1883,2886,2910,3899,5364,6288,7795,9301,11122,12906,13339,12995,10731,8531,6062,4065,2785,1915,1320,861,590,358,219,152,69,59,37,26,21,8,6,3,2,0,0,0,0,0,0,0,0,0,0,0,0,0,0,0,0,0,0,0,0,0,0,0,0,0
sample.transcriptic.aq1fqsmv78xr8as.experiment.transcriptic.r1fqsfn8au7bvp,YL3-A,1,1.9419,0.50528,82590,545,0,0,567,559,0,1100,577,487,1057,1636,1695,2127,3142,3022,4160,5540,6301,7475,8544,9799,10247,9454,7865,5812,3620,2046,1158,764,518,383,268,165,93,35,19,5,2,0,0,0,0,0,0,0,0,0,0,0,0,0,0,0,0,0,0,0,0,0,0,0,0,0,0,0,0,0,0,0,0
sample.transcriptic.aq1fqsmv78xr8as.experiment.transcriptic.r1fqsfn8au7bvp,VL4-A,1,2.43441,0.50367,28300,226,0,0,213,200,0,420,206,200,445,628,708,888,1361,1342,1943,2728,3302,4127,5471,7224,9171,11482,14106,15337,15484,14230,11779,9114,6815,5066,3614,2490,1687,1177,785,441,267,143,84,49,37,27,21,13,6,8,7,3,1,1,0,0,0,0,0,0,0,0,0,0,0,0,0,0,0,0,0,0,0
sample.transcriptic.aq1fqsmv78xr8as.experiment.transcriptic.r1fqsfn8au7bvp,VL3-A,1,3.09068,0.45071,7988,34,0,0,24,24,0,47,29,21,62,78,79,101,132,142,210,297,400,539,699,916,1272,1781,2598,3711,5408,7932,10952,15103,17845,19755,19052,15725,12643,9980,7785,6003,4392,3256,2233,1549,1041,619,345,224,113,68,43,33,31,24,12,4,9,7,4,2,0,1,0,0,0,0,0,0,0,0,0,0,0
sample.transcriptic.aq1fqsmv78xr8as.experiment.transcriptic.r1fqsfn8au7bvp,VL2-A,1,3.75872,0.39343,4519,2,0,0,3,3,0,10,3,6,7,4,2,5,17,17,20,29,39,35,46,82,105,105,126,158,183,227,296,408,759,1508,3305,6672,11572,16748,20845,22581,20815,16451,13427,10833,8581,6620,5097,3669,2648,1759,1183,752,423,261,151,77,45,35,34,24,16,8,9,12,0,0,0,0,0,0,0,0,0
sample.transcriptic.aq1fqsmv78xr8as.experiment.transcriptic.r1fqsfn8au7bvp,VL1-A,1,3.8217,0.40894,4385,5,0,0,2,3,0,8,2,1,7,7,7,11,10,14,24,29,34,38,56,64,68,109,111,152,215,263,374,527,859,1367,2491,4583,8485,13146,17997,21008,21023,18236,15187,12641,10466,8188,6308,4690,3469,2349,1601,1102,660,367,230,128,75,49,41,34,23,12,12,24,0,0,0,0,0,0,0,0,0
sample.transcriptic.aq1fqsmv78xr8as.experiment.transcriptic.r1fqsfn8au7bvp,YL4-H,1,1.96483,0.19619,48,6,0,0,12,11,0,29,24,18,48,112,168,381,874,1540,3814,9098,17285,28521,37372,38563,27823,13176,3654,585,72,29,34,29,15,25,5,2,3,1,0,0,0,0,0,0,0,0,0,0,0,0,0,0,0,0,0,0,0,0,0,0,0,0,0,0,0,0,0,0,0,0,0,0,0
sample.transcriptic.aq1fqsmv78xr8as.experiment.transcriptic.r1fqsfn8au7bvp,FSC-H,1,4.89754,0.14913,0,0,0,0,0,0,0,0,0,0,0,0,0,0,0,0,0,0,0,0,0,0,0,0,0,0,0,0,0,0,0,0,0,0,0,0,0,0,0,0,0,3,1,9,168,960,3723,12589,29010,43157,49039,30278,10664,3347,405,24,0,0,0,0,0,0,0,0,0,0,0,0,0,0,0
sample.transcriptic.aq1fqsmv78xr8as.experiment.transcriptic.r1fqsfn8au7bvp,SSC-H,1,5.40112,0.21143,0,0,0,0,0,0,0,0,0,0,0,0,0,0,0,0,0,0,0,0,0,0,0,0,0,0,0,0,0,0,0,0,0,0,0,0,0,0,0,0,0,0,0,0,1,12,45,89,256,779,2503,7515,18181,30143,36689,33738,23145,14334,8084,4297,2091,1475,0,0,0,0,0,0,0,0,0
sample.transcriptic.aq1fqsmv78xr8as.experiment.transcriptic.r1fqsfn8au7bvp,BL1-H,1,3.03056,0.20535,0,0,0,0,0,0,0,0,0,0,0,0,0,0,0,0,0,0,0,0,0,0,0,0,37,513,1917,5378,13684,26545,36937,36140,26526,17352,9763,5087,2236,850,292,91,23,3,2,0,0,0,1,0,0,0,0,0,0,0,0,0,0,0,0,0,0,0,0,0,0,0,0,0,0,0,0
sample.transcriptic.aq1fqsmv78xr8as.experiment.transcriptic.r1fqsfn8au7bvp,BL2-H,1,3.48715,0.20548,0,0,0,0,0,0,0,0,0,0,0,0,0,0,0,0,0,0,0,0,0,0,0,0,0,0,0,0,15,137,951,3304,8511,18530,31377,38252,33108,22386,13553,7452,3526,1489,536,184,49,14,1,1,0,0,1,0,0,0,0,0,0,0,0,0,0,0,0,0,0,0,0,0,0,0,0
sample.transcriptic.aq1fqsmv78xr8as.experiment.transcriptic.r1fqsfn8au7bvp,BL3-H,1,2.39159,0.22363,1,0,0,0,0,0,0,1,0,0,1,1,7,7,18,22,78,269,681,1816,4315,9823,17869,26255,32482,32843,26203,16355,8385,3662,1446,515,190,69,34,18,5,6,0,0,0,0,0,0,0,0,0,0,0,0,0,0,0,0,0,0,0,0,0,0,0,0,0,0,0,0,0,0,0,0,0
sample.transcriptic.aq1fqsmv78xr8as.experiment.transcriptic.r1fqsfn8au7bvp,RL3-A,1,2.09041,0.50212,49848,458,0,0,445,455,0,892,466,458,958,1350,1375,1911,2936,3098,4074,5378,6515,8145,9707,11997,13331,13566,12625,10256,7386,5249,3452,2343,1630,1062,785,498,279,195,110,46,33,26,17,12,3,5,1,1,0,0,0,0,0,0,0,0,0,0,0,0,0,0,0,0,0,0,0,0,0,0,0,0,0
sample.transcriptic.aq1fqsmv78yveev.experiment.transcriptic.r1fqsfn8au7bvp,FSC-W,0,1.78166,0.23768,0,0,0,0,0,0,0,0,0,0,0,0,0,0,9,970,5755,15486,17978,3836,2275,1998,1567,1102,692,518,342,263,170,166,97,223,0,0,0,0,0,0,0,0,0,0,0,0,0,0,0,0,0,0,0,0,0,0,0,0,0,0,0,0,0,0,0,0,0,0,0,0,0,0,0
sample.transcriptic.aq1fqsmv78yveev.experiment.transcriptic.r1fqsfn8au7bvp,VL1-H,0,3.50742,0.16876,0,0,0,0,0,0,0,0,0,0,0,0,0,0,0,0,0,0,0,0,0,0,0,0,0,0,0,1,0,26,97,449,1156,2904,7864,14237,13831,7077,3034,1497,767,341,120,35,7,2,1,1,0,0,0,0,0,0,0,0,0,0,0,0,0,0,0,0,0,0,0,0,0,0,0
sample.transcriptic.aq1fqsmv78yveev.experiment.transcriptic.r1fqsfn8au7bvp,VL2-H,0,3.1918,0.18112,0,0,0,0,0,0,0,0,0,0,0,0,0,0,0,0,0,0,0,0,0,0,0,0,2,13,64,274,753,1694,3841,8139,13147,13037,6958,2844,1471,706,329,133,38,1,1,2,0,0,0,0,0,0,0,0,0,0,0,0,0,0,0,0,0,0,0,0,0,0,0,0,0,0,0
sample.transcriptic.aq1fqsmv78yveev.experiment.transcriptic.r1fqsfn8au7bvp,RL1-H,0,1.93003,0.17021,1,1,0,0,0,0,0,2,0,5,5,10,10,42,124,330,930,3078,6585,11499,12931,9941,5080,2013,653,156,43,8,0,0,0,0,0,0,0,0,0,0,0,0,0,0,0,0,0,0,0,0,0,0,0,0,0,0,0,0,0,0,0,0,0,0,0,0,0,0,0,0,0,0,0
sample.transcriptic.aq1fqsmv78yveev.experiment.transcriptic.r1fqsfn8au7bvp,VL4-H,0,2.37197,0.17526,0,0,0,0,0,0,0,0,0,0,1,0,1,2,4,5,11,32,104,251,732,2067,4944,9178,12410,11751,7315,3251,992,311,63,11,6,4,1,0,0,0,0,0,0,0,0,0,0,0,0,0,0,0,0,0,0,0,0,0,0,0,0,0,0,0,0,0,0,0,0,0,0,0,0
sample.transcriptic.aq1fqsmv78yveev.experiment.transcriptic.r1fqsfn8au7bvp,RL3-H,0,2.09028,0.16683,3,1,0,0,0,2,0,1,1,1,3,10,10,20,48,82,188,583,1528,3694,7822,12701,13381,8664,3536,940,181,29,6,9,3,0,0,0,0,0,0,0,0,0,0,0,0,0,0,0,0,0,0,0,0,0,0,0,0,0,0,0,0,0,0,0,0,0,0,0,0,0,0,0,0
sample.transcriptic.aq1fqsmv78yveev.experiment.transcriptic.r1fqsfn8au7bvp,RL2-H,0,2.15363,0.20718,12,2,0,0,1,2,0,3,5,1,6,15,16,31,81,116,264,677,1465,2861,5227,8722,11168,10364,7058,3550,1330,352,81,11,7,2,10,3,4,0,0,0,0,0,0,0,0,0,0,0,0,0,0,0,0,0,0,0,0,0,0,0,0,0,0,0,0,0,0,0,0,0,0,0,0
sample.transcriptic.aq1fqsmv78yveev.experiment.transcriptic.r1fqsfn8au7bvp,SSC-W,0,1.95694,0.27499,0,0,0,0,0,0,0,0,0,0,0,0,0,0,0,4,1337,7511,10224,7007,7089,6685,5227,2895,1766,1182,743,530,392,267,189,399,0,0,0,0,0,0,0,0,0,0,0,0,0,0,0,0,0,0,0,0,0,0,0,0,0,0,0,0,0,0,0,0,0,0,0,0,0,0,0
sample.transcriptic.aq1fqsmv78yveev.experiment.transcriptic.r1fqsfn8au7bvp,VL3-H,0,2.86801,0.18183,0,0,0,0,0,0,0,0,0,0,0,0,0,0,1,0,1,1,0,4,4,15,53,117,370,971,2208,4908,9029,12337,11793,7080,2891,1062,423,133,43,3,0,0,0,0,0,0,0,0,0,0,0,0,0,0,0,0,0,0,0,0,0,0,0,0,0,0,0,0,0,0,0,0,0
sample.transcriptic.aq1fqsmv78yveev.experiment.transcriptic.r1fqsfn8au7bvp,BL1-W,0,,,53447,0,0,0,0,0,0,0,0,0,0,0,0,0,0,0,0,0,0,0,0,0,0,0,0,0,0,0,0,0,0,0,0,0,0,0,0,0,0,0,0,0,0,0,0,0,0,0,0,0,0,0,0,0,0,0,0,0,0,0,0,0,0,0,0,0,0,0,0,0,0
sample.transcriptic.aq1fqsmv78yveev.experiment.transcriptic.r1fqsfn8au7bvp,VL3-W,0,,,53447,0,0,0,0,0,0,0,0,0,0,0,0,0,0,0,0,0,0,0,0,0,0,0,0,0,0,0,0,0,0,0,0,0,0,0,0,0,0,0,0,0,0,0,0,0,0,0,0,0,0,0,0,0,0,0,0,0,0,0,0,0,0,0,0,0,0,0,0,0,0
sample.transcriptic.aq1fqsmv78yveev.experiment.transcriptic.r1fqsfn8au7bvp,BL3-W,0,,,53447,0,0,0,0,0,0,0,0,0,0,0,0,0,0,0,0,0,0,0,0,0,0,0,0,0,0,0,0,0,0,0,0,0,0,0,0,0,0,0,0,0,0,0,0,0,0,0,0,0,0,0,0,0,0,0,0,0,0,0,0,0,0,0,0,0,0,0,0,0,0
sample.transcriptic.aq1fqsmv78yveev.experiment.transcriptic.r1fqsfn8au7bvp,YL4-W,0,,,53447,0,0,0,0,0,0,0,0,0,0,0,0,0,0,0,0,0,0,0,0,0,0,0,0,0,0,0,0,0,0,0,0,0,0,0,0,0,0,0,0,0,0,0,0,0,0,0,0,0,0,0,0,0,0,0,0,0,0,0,0,0,0,0,0,0,0,0,0,0,0
sample.transcriptic.aq1fqsmv78yveev.experiment.transcriptic.r1fqsfn8au7bvp,YL3-W,0,,,53447,0,0,0,0,0,0,0,0,0,0,0,0,0,0,0,0,0,0,0,0,0,0,0,0,0,0,0,0,0,0,0,0,0,0,0,0,0,0,0,0,0,0,0,0,0,0,0,0,0,0,0,0,0,0,0,0,0,0,0,0,0,0,0,0,0,0,0,0,0,0
sample.transcriptic.aq1fqsmv78yveev.experiment.transcriptic.r1fqsfn8au7bvp,YL2-W,0,,,53447,0,0,0,0,0,0,0,0,0,0,0,0,0,0,0,0,0,0,0,0,0,0,0,0,0,0,0,0,0,0,0,0,0,0,0,0,0,0,0,0,0,0,0,0,0,0,0,0,0,0,0,0,0,0,0,0,0,0,0,0,0,0,0,0,0,0,0,0,0,0
sample.transcriptic.aq1fqsmv78yveev.experiment.transcriptic.r1fqsfn8au7bvp,YL1-W,0,,,53447,0,0,0,0,0,0,0,0,0,0,0,0,0,0,0,0,0,0,0,0,0,0,0,0,0,0,0,0,0,0,0,0,0,0,0,0,0,0,0,0,0,0,0,0,0,0,0,0,0,0,0,0,0,0,0,0,0,0,0,0,0,0,0,0,0,0,0,0,0,0
sample.transcriptic.aq1fqsmv78yveev.experiment.transcriptic.r1fqsfn8au7bvp,RL1-W,0,,,53447,0,0,0,0,0,0,0,0,0,0,0,0,0,0,0,0,0,0,0,0,0,0,0,0,0,0,0,0,0,0,0,0,0,0,0,0,0,0,0,0,0,0,0,0,0,0,0,0,0,0,0,0,0,0,0,0,0,0,0,0,0,0,0,0,0,0,0,0,0,0
sample.transcriptic.aq1fqsmv78yveev.experiment.transcriptic.r1fqsfn8au7bvp,RL2-W,0,,,53447,0,0,0,0,0,0,0,0,0,0,0,0,0,0,0,0,0,0,0,0,0,0,0,0,0,0,0,0,0,0,0,0,0,0,0,0,0,0,0,0,0,0,0,0,0,0,0,0,0,0,0,0,0,0,0,0,0,0,0,0,0,0,0,0,0,0,0,0,0,0
sample.transcriptic.aq1fqsmv78yveev.experiment.transcriptic.r1fqsfn8au7bvp,RL3-W,0,,,53447,0,0,0,0,0,0,0,0,0,0,0,0,0,0,0,0,0,0,0,0,0,0,0,0,0,0,0,0,0,0,0,0,0,0,0,0,0,0,0,0,0,0,0,0,0,0,0,0,0,0,0,0,0,0,0,0,0,0,0,0,0,0,0,0,0,0,0,0,0,0
sample.transcriptic.aq1fqsmv78yveev.experiment.transcriptic.r1fqsfn8au7bvp,VL4-W,0,,,53447,0,0,0,0,0,0,0,0,0,0,0,0,0,0,0,0,0,0,0,0,0,0,0,0,0,0,0,0,0,0,0,0,0,0,0,0,0,0,0,0,0,0,0,0,0,0,0,0,0,0,0,0,0,0,0,0,0,0,0,0,0,0,0,0,0,0,0,0,0,0
sample.transcriptic.aq1fqsmv78yveev.experiment.transcriptic.r1fqsfn8au7bvp,YL1-H,0,2.03224,0.16789,2,0,0,0,0,0,0,1,1,0,6,12,15,22,70,133,375,1129,2663,5998,10568,13597,11014,5527,1857,372,66,15,2,1,0,0,1,0,0,0,0,0,0,0,0,0,0,0,0,0,0,0,0,0,0,0,0,0,0,0,0,0,0,0,0,0,0,0,0,0,0,0,0,0,0
sample.transcriptic.aq1fqsmv78yveev.experiment.transcriptic.r1fqsfn8au7bvp,BL2-W,0,,,53447,0,0,0,0,0,0,0,0,0,0,0,0,0,0,0,0,0,0,0,0,0,0,0,0,0,0,0,0,0,0,0,0,0,0,0,0,0,0,0,0,0,0,0,0,0,0,0,0,0,0,0,0,0,0,0,0,0,0,0,0,0,0,0,0,0,0,0,0,0,0
sample.transcriptic.aq1fqsmv78yveev.experiment.transcriptic.r1fqsfn8au7bvp,YL2-H,0,1.90264,0.15336,2,1,0,0,1,0,0,2,0,3,8,14,25,55,159,361,1019,3266,7363,12666,14336,9726,3608,723,80,10,6,3,4,6,0,0,0,0,0,0,0,0,0,0,0,0,0,0,0,0,0,0,0,0,0,0,0,0,0,0,0,0,0,0,0,0,0,0,0,0,0,0,0,0,0
sample.transcriptic.aq1fqsmv78yveev.experiment.transcriptic.r1fqsfn8au7bvp,VL4-A,0,2.39374,0.45855,7335,60,0,0,51,67,0,104,69,62,125,182,189,246,365,383,561,792,899,1241,1578,2226,2871,3759,4809,5255,5510,4934,3677,2313,1290,824,528,345,215,155,132,92,64,41,50,20,18,7,3,0,0,0,0,0,0,0,0,0,0,0,0,0,0,0,0,0,0,0,0,0,0,0,0,0,0
sample.transcriptic.aq1fqsmv78yveev.experiment.transcriptic.r1fqsfn8au7bvp,YL4-H,0,1.96883,0.18325,9,0,0,0,1,2,0,3,1,5,9,20,37,61,181,330,878,2479,4862,8686,11461,11676,7975,3556,1023,162,14,6,4,4,1,1,0,0,0,0,0,0,0,0,0,0,0,0,0,0,0,0,0,0,0,0,0,0,0,0,0,0,0,0,0,0,0,0,0,0,0,0,0,0,0
sample.transcriptic.aq1fqsmv78yveev.experiment.transcriptic.r1fqsfn8au7bvp,VL2-W,0,1.28816,0.24108,53443,0,0,0,0,0,0,0,0,0,0,1,0,1,1,0,1,0,0,0,0,0,0,0,0,0,0,0,0,0,0,0,0,0,0,0,0,0,0,0,0,0,0,0,0,0,0,0,0,0,0,0,0,0,0,0,0,0,0,0,0,0,0,0,0,0,0,0,0,0,0
sample.transcriptic.aq1fqsmv78yveev.experiment.transcriptic.r1fqsfn8au7bvp,FSC-A,0,5.16042,0.25645,0,0,0,0,0,0,0,0,0,0,0,0,0,0,0,0,0,0,0,0,0,0,0,0,0,0,0,0,0,0,0,0,0,0,0,0,0,0,0,0,0,0,0,0,0,50,378,671,1359,3485,7062,10496,10891,7760,3869,2375,1630,1094,672,479,323,853,0,0,0,0,0,0,0,0,0
sample.transcriptic.aq1fqsmv78yveev.experiment.transcriptic.r1fqsfn8au7bvp,SSC-A,0,5.50824,0.25182,0,0,0,0,0,0,0,0,0,0,0,0,0,0,0,0,0,0,0,0,0,0,0,0,0,0,0,0,0,0,0,0,0,0,0,0,0,0,0,0,0,0,0,0,0,0,0,0,64,391,684,935,2401,5774,8713,9320,8296,5654,3741,2375,1473,3626,0,0,0,0,0,0,0,0,0
sample.transcriptic.aq1fqsmv78yveev.experiment.transcriptic.r1fqsfn8au7bvp,BL1-A,0,1.75359,0.48169,18309,277,0,0,268,299,0,511,259,258,509,823,852,1129,1597,1681,2238,2806,3234,3687,3740,3575,2922,1786,960,575,350,239,153,123,86,57,49,58,24,7,5,1,0,0,0,0,0,0,0,0,0,0,0,0,0,0,0,0,0,0,0,0,0,0,0,0,0,0,0,0,0,0,0,0,0
sample.transcriptic.aq1fqsmv78yveev.experiment.transcriptic.r1fqsfn8au7bvp,BL2-A,0,2.78766,0.42361,3630,9,0,0,21,17,0,44,18,16,38,53,49,79,114,109,158,210,287,376,497,693,950,1324,1781,2463,3341,4623,5803,6622,6403,5121,3330,1852,1117,714,461,309,221,167,125,91,63,49,48,30,11,6,4,0,0,0,0,0,0,0,0,0,0,0,0,0,0,0,0,0,0,0,0,0,0
sample.transcriptic.aq1fqsmv78yveev.experiment.transcriptic.r1fqsfn8au7bvp,BL3-A,0,2.22356,0.45446,6775,85,0,0,83,91,0,179,90,90,166,255,280,395,590,646,860,1246,1555,2064,2702,3513,4430,5179,5674,5195,4231,2787,1549,905,561,344,251,182,138,115,80,69,39,30,12,10,0,1,0,0,0,0,0,0,0,0,0,0,0,0,0,0,0,0,0,0,0,0,0,0,0,0,0,0,0
sample.transcriptic.aq1fqsmv78yveev.experiment.transcriptic.r1fqsfn8au7bvp,YL4-A,0,1.79832,0.4866,22949,228,0,0,234,211,0,414,225,213,434,648,705,849,1294,1288,1705,2245,2497,2763,3097,3108,2931,2137,1450,749,384,256,148,105,65,48,36,16,8,4,1,2,0,0,0,0,0,0,0,0,0,0,0,0,0,0,0,0,0,0,0,0,0,0,0,0,0,0,0,0,0,0,0,0,0
sample.transcriptic.aq1fqsmv78yveev.experiment.transcriptic.r1fqsfn8au7bvp,YL3-A,0,1.92684,0.48703,24110,150,0,0,166,165,0,313,152,144,305,475,470,616,970,868,1262,1612,1890,2192,2599,2911,3164,2824,2402,1672,919,463,240,139,107,70,41,18,12,3,1,2,0,0,0,0,0,0,0,0,0,0,0,0,0,0,0,0,0,0,0,0,0,0,0,0,0,0,0,0,0,0,0,0,0
sample.transcriptic.aq1fqsmv78yveev.experiment.transcriptic.r1fqsfn8au7bvp,YL2-A,0,1.74654,0.48009,22378,238,0,0,249,264,0,513,237,279,471,737,761,993,1453,1452,1944,2494,2750,3074,3254,3248,2619,1749,973,530,252,181,110,76,67,49,18,16,11,7,0,0,0,0,0,0,0,0,0,0,0,0,0,0,0,0,0,0,0,0,0,0,0,0,0,0,0,0,0,0,0,0,0,0,0
sample.transcriptic.aq1fqsmv78yveev.experiment.transcriptic.r1fqsfn8au7bvp,YL1-A,0,1.89967,0.48162,18054,186,0,0,183,187,0,394,203,170,392,566,583,751,1186,1218,1567,2200,2554,2941,3414,3718,3775,3237,2387,1501,783,455,272,185,104,92,73,55,30,20,7,1,3,0,0,0,0,0,0,0,0,0,0,0,0,0,0,0,0,0,0,0,0,0,0,0,0,0,0,0,0,0,0,0,0
sample.transcriptic.aq1fqsmv78yveev.experiment.transcriptic.r1fqsfn8au7bvp,RL1-A,0,1.89755,0.48467,13490,223,0,0,194,223,0,423,201,216,444,609,645,882,1320,1305,1842,2499,3027,3442,3981,4444,4213,3569,2341,1381,783,534,354,252,190,157,84,54,66,31,12,7,5,2,2,0,0,0,0,0,0,0,0,0,0,0,0,0,0,0,0,0,0,0,0,0,0,0,0,0,0,0,0,0,0
sample.transcriptic.aq1fqsmv78yveev.experiment.transcriptic.r1fqsfn8au7bvp,RL2-A,0,2.06786,0.49278,14979,124,0,0,129,137,0,292,145,132,263,423,434,572,876,891,1175,1636,1927,2371,2770,3529,4122,4073,3822,3025,2100,1279,717,434,320,226,154,113,84,70,50,24,16,7,5,1,0,0,0,0,0,0,0,0,0,0,0,0,0,0,0,0,0,0,0,0,0,0,0,0,0,0,0,0,0
sample.transcriptic.aq1fqsmv78yveev.experiment.transcriptic.r1fqsfn8au7bvp,RL3-A,0,2.03098,0.48621,15717,153,0,0,144,132,0,318,138,150,252,479,445,607,833,877,1243,1802,2025,2509,3047,3685,4094,4095,3659,2638,1717,927,570,345,247,191,128,96,74,50,33,18,2,5,1,1,0,0,0,0,0,0,0,0,0,0,0,0,0,0,0,0,0,0,0,0,0,0,0,0,0,0,0,0,0
sample.transcriptic.aq1fqsmv78yveev.experiment.transcriptic.r1fqsfn8au7bvp,VL3-A,0,3.00212,0.39398,1512,7,0,0,9,7,0,11,5,9,13,21,19,30,47,55,57,87,137,161,176,315,402,556,850,1155,1760,2568,3746,5324,6810,7595,6810,4753,2934,1861,1174,771,489,311,250,181,135,88,71,47,44,46,20,12,5,1,0,0,0,0,0,0,0,0,0,0,0,0,0,0,0,0,0,0,0
sample.transcriptic.aq1fqsmv78yveev.experiment.transcriptic.r1fqsfn8au7bvp,VL2-A,0,3.36487,0.36865,476,0,0,0,2,3,0,2,2,2,2,6,4,5,7,4,12,11,20,30,39,56,68,109,160,223,354,547,815,1363,2162,3426,5389,7270,8117,7546,5086,3037,2031,1562,1077,727,451,323,257,172,132,107,74,49,48,40,25,9,5,3,0,0,0,0,0,0,0,0,0,0,0,0,0,0,0
sample.transcriptic.aq1fqsmv78yveev.experiment.transcriptic.r1fqsfn8au7bvp,VL1-A,0,3.71459,0.32753,136,0,0,0,0,1,0,1,0,0,0,0,0,1,0,1,0,2,2,3,4,13,8,17,17,23,40,52,83,139,269,494,826,1431,2644,4848,7487,9402,8678,6034,3281,2262,1613,1107,731,510,338,241,189,157,99,75,59,49,41,23,9,3,4,0,0,0,0,0,0,0,0,0,0,0,0
sample.transcriptic.aq1fqsmv78yveev.experiment.transcriptic.r1fqsfn8au7bvp,FSC-H,0,4.92043,0.12106,0,0,0,0,0,0,0,0,0,0,0,0,0,0,0,0,0,0,0,0,0,0,0,0,0,0,0,0,0,0,0,0,0,0,0,0,0,0,0,0,0,0,0,0,0,34,413,1443,6942,13192,17798,10441,2645,491,48,0,0,0,0,0,0,0,0,0,0,0,0,0,0,0,0
sample.transcriptic.aq1fqsmv78yveev.experiment.transcriptic.r1fqsfn8au7bvp,SSC-H,0,5.29866,0.1629,0,0,0,0,0,0,0,0,0,0,0,0,0,0,0,0,0,0,0,0,0,0,0,0,0,0,0,0,0,0,0,0,0,0,0,0,0,0,0,0,0,0,0,0,0,0,2,14,120,562,1213,2212,8409,16517,12620,6442,2886,1405,688,263,78,16,0,0,0,0,0,0,0,0,0
sample.transcriptic.aq1fqsmv78yveev.experiment.transcriptic.r1fqsfn8au7bvp,BL1-H,0,1.81472,0.13987,2,0,0,0,2,1,0,5,2,4,8,23,35,84,295,756,2251,6614,12771,15999,10821,3237,471,66,0,0,0,0,0,0,0,0,0,0,0,0,0,0,0,0,0,0,0,0,0,0,0,0,0,0,0,0,0,0,0,0,0,0,0,0,0,0,0,0,0,0,0,0,0,0,0
sample.transcriptic.aq1fqsmv78yveev.experiment.transcriptic.r1fqsfn8au7bvp,BL2-H,0,2.67013,0.16761,0,0,0,0,0,0,0,0,0,0,0,0,0,0,0,0,0,4,3,3,16,71,239,702,1965,4998,9234,12620,12104,7585,2800,814,227,54,5,3,0,0,0,0,0,0,0,0,0,0,0,0,0,0,0,0,0,0,0,0,0,0,0,0,0,0,0,0,0,0,0,0,0,0,0
sample.transcriptic.aq1fqsmv78yveev.experiment.transcriptic.r1fqsfn8au7bvp,BL3-H,0,2.18756,0.17911,0,0,0,0,0,0,0,0,0,0,0,6,4,8,14,29,80,289,670,1923,4337,8406,11760,11946,8192,3971,1363,375,55,9,5,2,2,1,0,0,0,0,0,0,0,0,0,0,0,0,0,0,0,0,0,0,0,0,0,0,0,0,0,0,0,0,0,0,0,0,0,0,0,0,0
sample.transcriptic.aq1fqsmv78yveev.experiment.transcriptic.r1fqsfn8au7bvp,YL3-H,0,2.08889,0.16824,8,2,0,0,1,5,0,3,3,1,10,10,18,30,64,116,246,684,1591,3536,7260,12360,13900,9353,3565,626,46,6,3,0,0,0,0,0,0,0,0,0,0,0,0,0,0,0,0,0,0,0,0,0,0,0,0,0,0,0,0,0,0,0,0,0,0,0,0,0,0,0,0,0,0
sample.transcriptic.aq1fqsmv78yveev.experiment.transcriptic.r1fqsfn8au7bvp,VL1-W,0,1.19884,0.36685,52940,5,0,0,7,8,0,27,29,17,31,71,62,48,48,42,38,34,16,14,9,0,1,0,0,0,0,0,0,0,0,0,0,0,0,0,0,0,0,0,0,0,0,0,0,0,0,0,0,0,0,0,0,0,0,0,0,0,0,0,0,0,0,0,0,0,0,0,0,0,0
